'- 11111110 (#FE) - ct sh 8  0  X  P  H  @
'- 11111101 (#FD) - ct sh 9  1  Y  Q  I  A
'- 11111011 (#FB) - ct sh :  2  Z  R  J  B
'- 11110111 (#F7) - ct sh ;  3  en S  K  C
'- 11101111 (#EF) - ct sh ,  4  sp T  L  D
'- 11011111 (#DF) - ct sh -  5  ru U  M  E  
'- 10111111 (#BF) - ct sh .  6  ^  V  N  F
'- 01111111 (#7F) - ct sh /  7  re W  O  G

'- joystick  1 2
'- Botão     A @
'- Acima     I H
'- Abaixo    Q P
'- Esquerda  Y X
'- Direita   1 0

 A       @       
   I       H     
 Y Q 1   X P 0   
                  

