<?xml version="1.0" encoding="UTF-8" standalone="no"?>
<!-- Created with Inkscape (http://www.inkscape.org/) -->

<svg
   xmlns:dc="http://purl.org/dc/elements/1.1/"
   xmlns:cc="http://creativecommons.org/ns#"
   xmlns:rdf="http://www.w3.org/1999/02/22-rdf-syntax-ns#"
   xmlns:svg="http://www.w3.org/2000/svg"
   xmlns="http://www.w3.org/2000/svg"
   xmlns:sodipodi="http://sodipodi.sourceforge.net/DTD/sodipodi-0.dtd"
   xmlns:inkscape="http://www.inkscape.org/namespaces/inkscape"
   id="svg2"
   version="1.1"
   inkscape:version="0.48.1 r9760"
   width="256"
   height="192"
   sodipodi:docname="_256x192_horse_Bridon_Belfrey_RID_Irish_Draught_Stallion.svg">
  <metadata
     id="metadata8">
    <rdf:RDF>
      <cc:Work
         rdf:about="">
        <dc:format>image/svg+xml</dc:format>
        <dc:type
           rdf:resource="http://purl.org/dc/dcmitype/StillImage" />
        <dc:title></dc:title>
      </cc:Work>
    </rdf:RDF>
  </metadata>
  <defs
     id="defs6" />
  <sodipodi:namedview
     pagecolor="#ffffff"
     bordercolor="#666666"
     borderopacity="1"
     objecttolerance="10"
     gridtolerance="10"
     guidetolerance="10"
     inkscape:pageopacity="0"
     inkscape:pageshadow="2"
     inkscape:window-width="898"
     inkscape:window-height="606"
     id="namedview4"
     showgrid="false"
     inkscape:zoom="2.07"
     inkscape:cx="140"
     inkscape:cy="107"
     inkscape:window-x="272"
     inkscape:window-y="128"
     inkscape:window-maximized="0"
     inkscape:current-layer="svg2" />
  <path
     style="fill:none;stroke:#000000;stroke-width:1px;stroke-linecap:butt;stroke-linejoin:miter;stroke-opacity:1"
     d="M 86.2,125 L 88.6,124 L 91.2,126 L 91,128 L 89.7,131 L 86.1,131 L 84.5,128 z"
     id="path3050"
     inkscape:connector-curvature="0" />
  <path
     style="fill:none;stroke:#000000;stroke-width:1px;stroke-linecap:butt;stroke-linejoin:miter;stroke-opacity:1"
     d="M 224,14 L 234,3.76 L 230,17.1"
     id="path3006"
     inkscape:connector-curvature="0" />
  <path
     style="fill:none;stroke:#000000;stroke-width:1px;stroke-linecap:butt;stroke-linejoin:miter;stroke-opacity:1"
     d="M 210,46.9 L 230,53.4 L 237,58.2 L 241,63.3 L 251,63.7 L 255,53.7 L 248,41.1 L 240,30.1 L 238,20.9 L 231,13.3"
     id="path3008"
     inkscape:connector-curvature="0" />
  <path
     style="fill:none;stroke:#000000;stroke-width:1px;stroke-linecap:butt;stroke-linejoin:miter;stroke-opacity:1"
     d="M 146,103 L 150,130 L 147,137 L 149,143 L 147,168 L 151,170 L 154,176 L 152,180 L 158,181 L 167,181 L 166,177 L 162,172 L 157,165 L 157,145 L 159,139 L 161,130 L 170,104 L 176,99.3 L 183,87.6 L 186,74.6 L 195,60.6 L 206,49.3 L 214,44.5"
     id="path3010"
     inkscape:connector-curvature="0" />
  <path
     style="fill:none;stroke:#000000;stroke-width:1px;stroke-linecap:butt;stroke-linejoin:miter;stroke-opacity:1"
     d="M 16.1,124 L 15.1,95.8 L 17.1,81.8 L 18.8,64 L 27.7,50.7 L 48.3,41.8 L 64.3,40.7 L 78.4,43.1 L 103,50 L 119,48.9 L 137,42.4 L 155,30.1 L 179,17.8 L 201,12.7 L 216,10.6 L 225,12.7"
     id="path3012"
     inkscape:connector-curvature="0" />
  <path
     style="fill:none;stroke:#000000;stroke-width:1px;stroke-linecap:butt;stroke-linejoin:miter;stroke-opacity:1"
     d="M 41.1,105 L 71.2,78.7 L 129,145 L 102,169 z"
     id="path3014"
     inkscape:connector-curvature="0" />
  <path
     style="fill:none;stroke:#000000;stroke-width:1px;stroke-linecap:butt;stroke-linejoin:miter;stroke-opacity:1"
     d="M 149,142 L 146,148 L 147,170 L 152,176 L 152,179 L 143,181 L 138,177 L 141,172 L 136,164 L 144,133 L 145,130 L 140,107"
     id="path3016"
     inkscape:connector-curvature="0"
     sodipodi:nodetypes="cccccccccccc" />
  <path
     style="fill:none;stroke:#000000;stroke-width:1px;stroke-linecap:butt;stroke-linejoin:miter;stroke-opacity:1"
     d="M 94.8,105 L 108,108 L 131,108 L 144,107"
     id="path3018"
     inkscape:connector-curvature="0" />
  <path
     style="fill:none;stroke:#000000;stroke-width:1px;stroke-linecap:butt;stroke-linejoin:miter;stroke-opacity:1"
     d="M 55.1,120 L 50,139 L 49.3,155 L 55.1,169 L 60.9,174 L 65.4,182 L 56.5,184 L 48.9,182 L 50.7,175 L 44.1,172 L 42.8,160 L 37.6,141 L 38,124"
     id="path3020"
     inkscape:connector-curvature="0" />
  <path
     style="fill:none;stroke:#000000;stroke-width:1px;stroke-linecap:butt;stroke-linejoin:miter;stroke-opacity:1"
     d="M 29.8,54.8 L 25.3,68.4 L 25,81.5 L 29.1,98.2 L 28.7,107 L 16.1,125 L 15.4,137 L 7.19,167 L 10.3,172 L 9.58,180 L 7.19,184 L 12,187 L 23.6,187 L 19.2,178 L 18.5,168 L 22.9,144 L 33.9,128 L 48.6,113 L 48.6,113 L 48.6,113"
     id="path3022"
     inkscape:connector-curvature="0" />
  <path
     style="fill:none;stroke:#000000;stroke-width:1px;stroke-linecap:butt;stroke-linejoin:miter;stroke-opacity:1"
     d="M 35.3,126 L 31.5,148 L 33.2,158 L 25.7,153 L 25,158 L 21.6,151"
     id="path3024"
     inkscape:connector-curvature="0" />
  <path
     style="fill:none;stroke:#000000;stroke-width:1px;stroke-linecap:butt;stroke-linejoin:miter;stroke-opacity:1"
     d="M 233,28.1 L 238,29.8 L 239,32.2 L 236,30.8"
     id="path3026"
     inkscape:connector-curvature="0" />
  <path
     style="fill:none;stroke:#000000;stroke-width:1px;stroke-linecap:butt;stroke-linejoin:miter;stroke-opacity:1"
     d="M 218,12.7 L 222,27.7 L 227,35.9 L 240,47.6 L 233,55.4 L 236,56.8 L 241,49.6 L 248,43.5 L 247,40.4 L 243,44.5 L 226,28.7 L 226,22.9 L 221,15.1"
     id="path3028"
     inkscape:connector-curvature="0" />
  <path
     style="fill:none;stroke:#000000;stroke-width:1px;stroke-linecap:butt;stroke-linejoin:miter;stroke-opacity:1"
     d="M 65.7,98.9 L 66.7,97.2 L 64,94.6 L 60.4,96.7 L 60.4,100 L 64.2,102"
     id="path3034"
     inkscape:connector-curvature="0" />
  <path
     style="fill:none;stroke:#000000;stroke-width:1px;stroke-linecap:butt;stroke-linejoin:miter;stroke-opacity:1"
     d="M 70.5,109 L 66.9,107 L 66.4,105 L 69.8,103 L 72.6,104 L 72.7,106 L 72,107 L 68.3,103"
     id="path3036"
     inkscape:connector-curvature="0" />
  <path
     style="fill:none;stroke:#000000;stroke-width:1px;stroke-linecap:butt;stroke-linejoin:miter;stroke-opacity:1"
     d="M 70.5,111 L 73.1,114"
     id="path3038"
     inkscape:connector-curvature="0" />
  <path
     style="fill:none;stroke:#000000;stroke-width:1px;stroke-linecap:butt;stroke-linejoin:miter;stroke-opacity:1"
     d="M 72,112 L 76.7,109 L 76.3,107"
     id="path3040"
     inkscape:connector-curvature="0" />
  <path
     style="fill:none;stroke:#000000;stroke-width:1px;stroke-linecap:butt;stroke-linejoin:miter;stroke-opacity:1"
     d="M 76.5,118 L 74.1,115"
     id="path3042"
     inkscape:connector-curvature="0" />
  <path
     style="fill:none;stroke:#000000;stroke-width:1px;stroke-linecap:butt;stroke-linejoin:miter;stroke-opacity:1"
     d="M 75,116 L 78.9,113 L 79.1,111 L 77.3,110 L 74.8,110"
     id="path3044"
     inkscape:connector-curvature="0" />
  <path
     style="fill:none;stroke:#000000;stroke-width:1px;stroke-linecap:butt;stroke-linejoin:miter;stroke-opacity:1"
     d="M 77.9,121 L 79.6,119 L 79.1,122 L 81.5,123 L 83.7,123 L 82.5,120 L 81.5,117 L 82.8,116 L 84.9,118 L 84.9,121 L 86.4,120"
     id="path3048"
     inkscape:connector-curvature="0" />
  <path
     style="fill:none;stroke:#000000;stroke-width:1px;stroke-linecap:butt;stroke-linejoin:miter;stroke-opacity:1"
     d="M 90.7,134 L 94.8,139"
     id="path3052"
     inkscape:connector-curvature="0" />
  <path
     style="fill:none;stroke:#000000;stroke-width:1px;stroke-linecap:butt;stroke-linejoin:miter;stroke-opacity:1"
     d="M 92.2,136 L 96.7,132 L 95.1,130"
     id="path3054"
     inkscape:connector-curvature="0" />
  <path
     style="fill:none;stroke:#000000;stroke-width:1px;stroke-linecap:butt;stroke-linejoin:miter;stroke-opacity:1"
     d="M 97.9,136 L 99.4,135 L 98.4,133 L 95.1,133"
     id="path3056"
     inkscape:connector-curvature="0" />
  <path
     style="fill:none;stroke:#000000;stroke-width:1px;stroke-linecap:butt;stroke-linejoin:miter;stroke-opacity:1"
     d="M 102,144 L 99.4,144 L 98.2,142 L 99.9,139 L 103,138 L 105,140 L 104,143 L 99.4,139"
     id="path3058"
     inkscape:connector-curvature="0" />
  <path
     style="fill:none;stroke:#000000;stroke-width:1px;stroke-linecap:butt;stroke-linejoin:miter;stroke-opacity:1"
     d="M 109,151 L 106,150 L 104,148 L 106,145 L 109,145 L 111,146 L 111,148"
     id="path3060"
     inkscape:connector-curvature="0" />
  <path
     style="fill:none;stroke:#000000;stroke-width:1px;stroke-linecap:butt;stroke-linejoin:miter;stroke-opacity:1"
     d="M 108,153 L 107,152 L 114,146 L 112,144"
     id="path3062"
     inkscape:connector-curvature="0" />
  <path
     style="fill:none;stroke:#000000;stroke-width:1px;stroke-linecap:butt;stroke-linejoin:miter;stroke-opacity:1"
     d="M 254,53.3 L 251,52.6 L 252,58.4"
     id="path3087"
     inkscape:connector-curvature="0" />
</svg>
