<?xml version="1.0" encoding="UTF-8" standalone="no"?>
<!-- Created with Inkscape (http://www.inkscape.org/) -->

<svg
   xmlns:dc="http://purl.org/dc/elements/1.1/"
   xmlns:cc="http://creativecommons.org/ns#"
   xmlns:rdf="http://www.w3.org/1999/02/22-rdf-syntax-ns#"
   xmlns:svg="http://www.w3.org/2000/svg"
   xmlns="http://www.w3.org/2000/svg"
   xmlns:sodipodi="http://sodipodi.sourceforge.net/DTD/sodipodi-0.dtd"
   xmlns:inkscape="http://www.inkscape.org/namespaces/inkscape"
   id="svg2"
   version="1.1"
   inkscape:version="0.48.1 r9760"
   width="256"
   height="192"
   sodipodi:docname="_256x192_mare_lucky2.svg">
  <metadata
     id="metadata8">
    <rdf:RDF>
      <cc:Work
         rdf:about="">
        <dc:format>image/svg+xml</dc:format>
        <dc:type
           rdf:resource="http://purl.org/dc/dcmitype/StillImage" />
        <dc:title></dc:title>
      </cc:Work>
    </rdf:RDF>
  </metadata>
  <defs
     id="defs6" />
  <sodipodi:namedview
     pagecolor="#ffffff"
     bordercolor="#666666"
     borderopacity="1"
     objecttolerance="10"
     gridtolerance="10"
     guidetolerance="10"
     inkscape:pageopacity="0"
     inkscape:pageshadow="2"
     inkscape:window-width="881"
     inkscape:window-height="620"
     id="namedview4"
     showgrid="false"
     inkscape:zoom="2.07"
     inkscape:cx="97.8"
     inkscape:cy="103"
     inkscape:window-x="138"
     inkscape:window-y="54"
     inkscape:window-maximized="0"
     inkscape:current-layer="svg2" />
  <path
     style="fill:none;stroke:#000000;stroke-width:1px;stroke-linecap:butt;stroke-linejoin:miter;stroke-opacity:1"
     d="M 208,56.5 L 218,66.4 L 224,69.8 L 226,74.6 L 233,79.1 L 240,77.7 L 245,67.8 L 243,61.3 L 235,49.3 L 233,41.1 L 234,33.2 L 231,26.4 L 225,16.8"
     id="path2987"
     inkscape:connector-curvature="0"
     sodipodi:nodetypes="ccccccccccccc" />
  <path
     style="fill:none;stroke:#000000;stroke-width:1px;stroke-linecap:butt;stroke-linejoin:miter;stroke-opacity:1"
     d="M 217,14.7 L 225,5.48 L 225,14 L 224,21.2"
     id="path2989"
     inkscape:connector-curvature="0" />
  <path
     style="fill:none;stroke:#000000;stroke-width:1px;stroke-linecap:butt;stroke-linejoin:miter;stroke-opacity:1"
     d="M 232,29.8 L 229,33.5 L 231,38"
     id="path2991"
     inkscape:connector-curvature="0" />
  <path
     style="fill:none;stroke:#000000;stroke-width:1px;stroke-linecap:butt;stroke-linejoin:miter;stroke-opacity:1"
     d="M 221,67.4 L 232,58.2 L 224,41.1 L 209,57.5 L 209,52 L 221,38.7 L 219,22.2 L 215,15.4 L 220,17.8 L 224,31.5 L 223,39.4 L 233,52.7 L 236,51.3 L 236,55.4 L 235,57.5 L 238,64.7 L 234,66.4 L 232,57.2"
     id="path2993"
     inkscape:connector-curvature="0" />
  <path
     style="fill:none;stroke:#000000;stroke-width:1px;stroke-linecap:butt;stroke-linejoin:miter;stroke-opacity:1"
     d="M 218,13 L 205,11 L 187,13.3 L 171,22.9 L 157,33.4 L 143,47.4 L 132,57.2"
     id="path2995"
     inkscape:connector-curvature="0"
     sodipodi:nodetypes="ccccccc" />
  <path
     style="fill:none;stroke:#000000;stroke-width:1px;stroke-linecap:butt;stroke-linejoin:miter;stroke-opacity:1"
     d="M 125,58.2 L 135,57.2 L 149,56.8 L 157,58.9"
     id="path2997"
     inkscape:connector-curvature="0"
     sodipodi:nodetypes="ccc" />
  <path
     style="fill:none;stroke:#000000;stroke-width:1px;stroke-linecap:butt;stroke-linejoin:miter;stroke-opacity:1"
     d="M 208,53.7 L 201,63.7 L 199,75.3 L 204,84.9 L 207,94.8 L 207,109 L 203,120 L 202,137 L 198,154 L 198,170 L 196,193"
     id="path2999"
     inkscape:connector-curvature="0" />
  <path
     style="fill:none;stroke:#000000;stroke-width:1px;stroke-linecap:butt;stroke-linejoin:miter;stroke-opacity:1"
     d="M 173,136 L 179,138 L 182,149 L 183,164 L 186,176 L 186,186 L 188,191"
     id="path3001"
     inkscape:connector-curvature="0" />
  <path
     style="fill:none;stroke:#000000;stroke-width:1px;stroke-linecap:butt;stroke-linejoin:miter;stroke-opacity:1"
     d="M 181,124 L 176,133 L 169,140 L 153,148 L 137,151 L 123,152 L 114,149"
     id="path3003"
     inkscape:connector-curvature="0" />
  <path
     style="fill:none;stroke:#000000;stroke-width:1px;stroke-linecap:butt;stroke-linejoin:miter;stroke-opacity:1"
     d="M 156,191 L 156,181 L 160,176 L 159,166 L 160,155 L 159,144"
     id="path3005"
     inkscape:connector-curvature="0" />
  <path
     style="fill:none;stroke:#000000;stroke-width:1px;stroke-linecap:butt;stroke-linejoin:miter;stroke-opacity:1"
     d="M 148,148 L 147,178 L 149,184 L 148,192"
     id="path3007"
     inkscape:connector-curvature="0" />
  <path
     style="fill:none;stroke:#000000;stroke-width:1px;stroke-linecap:butt;stroke-linejoin:miter;stroke-opacity:1"
     d="M 92.4,192 L 97.9,183 L 106,163 L 114,149 L 118,142 L 126,132 L 133,111 L 133,103"
     id="path3009"
     inkscape:connector-curvature="0" />
  <path
     style="fill:none;stroke:#000000;stroke-width:1px;stroke-linecap:butt;stroke-linejoin:miter;stroke-opacity:1"
     d="M 134,65 L 122,56.1 L 105,48.3 L 86.2,47.9 L 75.3,52 L 67.8,52.4 L 50.3,61.9 L 34.9,76 L 25.7,95.8 L 26,119 L 31.5,136"
     id="path3011"
     inkscape:connector-curvature="0" />
  <path
     style="fill:none;stroke:#000000;stroke-width:1px;stroke-linecap:butt;stroke-linejoin:miter;stroke-opacity:1"
     d="M 66.1,193 L 70.5,180 L 73.9,171 L 71.8,160 L 66,152 L 58.2,142 L 53.8,133 L 50.7,121"
     id="path3013"
     inkscape:connector-curvature="0"
     sodipodi:nodetypes="cccccccc" />
  <path
     style="fill:none;stroke:#000000;stroke-width:1px;stroke-linecap:butt;stroke-linejoin:miter;stroke-opacity:1"
     d="M 51.7,86.6 L 50,96.5 L 50.3,121 L 49.3,146 L 52.4,169 L 52,186 L 54.1,193"
     id="path3015"
     inkscape:connector-curvature="0"
     sodipodi:nodetypes="ccccccc" />
  <path
     style="fill:none;stroke:#000000;stroke-width:1px;stroke-linecap:butt;stroke-linejoin:miter;stroke-opacity:1"
     d="M 42.8,192 L 40,182 L 36.3,186 L 38.7,173 L 33.9,158 L 30.8,146 L 33.2,127 L 34.6,106 L 42.4,85.6 L 47.2,79.4"
     id="path3017"
     inkscape:connector-curvature="0"
     sodipodi:nodetypes="cccccccccc" />
  <path
     style="fill:none;stroke:#000000;stroke-width:1px;stroke-linecap:butt;stroke-linejoin:miter;stroke-opacity:1"
     d="M 68.1,154 L 65.7,170 L 59.6,188 L 58.9,193"
     id="path3019"
     inkscape:connector-curvature="0" />
</svg>
