<?xml version="1.0" encoding="UTF-8" standalone="no"?>
<!-- Created with Inkscape (http://www.inkscape.org/) -->

<svg
   xmlns:dc="http://purl.org/dc/elements/1.1/"
   xmlns:cc="http://creativecommons.org/ns#"
   xmlns:rdf="http://www.w3.org/1999/02/22-rdf-syntax-ns#"
   xmlns:svg="http://www.w3.org/2000/svg"
   xmlns="http://www.w3.org/2000/svg"
   xmlns:sodipodi="http://sodipodi.sourceforge.net/DTD/sodipodi-0.dtd"
   xmlns:inkscape="http://www.inkscape.org/namespaces/inkscape"
   id="svg2"
   version="1.1"
   inkscape:version="0.48.1 r9760"
   width="256"
   height="192"
   sodipodi:docname="title.svg">
  <metadata
     id="metadata8">
    <rdf:RDF>
      <cc:Work
         rdf:about="">
        <dc:format>image/svg+xml</dc:format>
        <dc:type
           rdf:resource="http://purl.org/dc/dcmitype/StillImage" />
        <dc:title />
      </cc:Work>
    </rdf:RDF>
  </metadata>
  <defs
     id="defs6" />
  <sodipodi:namedview
     pagecolor="#ffffff"
     bordercolor="#666666"
     borderopacity="1"
     objecttolerance="10"
     gridtolerance="10"
     guidetolerance="10"
     inkscape:pageopacity="0"
     inkscape:pageshadow="2"
     inkscape:window-width="802"
     inkscape:window-height="630"
     id="namedview4"
     showgrid="false"
     inkscape:zoom="1.46"
     inkscape:cx="77.9"
     inkscape:cy="107"
     inkscape:window-x="24"
     inkscape:window-y="69"
     inkscape:window-maximized="0"
     inkscape:current-layer="svg2" />
  <path
     style="fill:none;stroke:#000000;stroke-width:1px;stroke-linecap:butt;stroke-linejoin:miter;stroke-opacity:1"
     d="M 107,109 L 109,105 L 114,104 L 120,105 L 123,107 L 122,111 L 116,112 L 110,111 z"
     id="path3094"
     inkscape:connector-curvature="0" />
  <path
     style="fill:none;stroke:#000000;stroke-width:1px;stroke-linecap:butt;stroke-linejoin:miter;stroke-opacity:1"
     d="M 26.5,79.2 L 18.1,78.8 L 18.5,76.6 L 21.4,77.3 L 21.2,69.9 L 18.1,69.1 L 18.6,67.7 L 22.9,67.7 L 23.3,77.1 L 26.4,77.3 z"
     id="path3046"
     inkscape:connector-curvature="0" />
  <path
     style="fill:none;stroke:#000000;stroke-width:1px;stroke-linecap:butt;stroke-linejoin:miter;stroke-opacity:1"
     d="M 34.6,79.3 L 31.3,79.7 L 28.6,77.1 L 29.3,72.6 L 31.7,71.8 L 35.1,73 L 36.1,75.4 L 36.1,78.1 z"
     id="path3048"
     inkscape:connector-curvature="0" />
  <path
     style="fill:none;stroke:#000000;stroke-width:1px;stroke-linecap:butt;stroke-linejoin:miter;stroke-opacity:1"
     d="M 32.9,78.3 L 30.1,76.9 L 30,73.8 L 32.7,73 L 34.6,74.9 L 34.6,76.9 z"
     id="path3050"
     inkscape:connector-curvature="0" />
  <path
     style="fill:none;stroke:#000000;stroke-width:1px;stroke-linecap:butt;stroke-linejoin:miter;stroke-opacity:1"
     d="M 42.8,80 L 40.1,78.3 L 38.9,75 L 39.5,72.5 L 42.3,71.4 L 44.7,72.1 L 46.2,74.7 L 45.9,78.3 z"
     id="path3052"
     inkscape:connector-curvature="0" />
  <path
     style="fill:none;stroke:#000000;stroke-width:1px;stroke-linecap:butt;stroke-linejoin:miter;stroke-opacity:1"
     d="M 43.1,77.8 L 40.6,76.6 L 40.7,73.3 L 43.6,72.6 L 44.8,75.6 z"
     id="path3054"
     inkscape:connector-curvature="0" />
  <path
     style="fill:none;stroke:#000000;stroke-width:1px;stroke-linecap:butt;stroke-linejoin:miter;stroke-opacity:1"
     d="M 51.7,79.3 L 48.3,79 C 48.3,79 47.4,76.8 48.3,76.9 C 49.1,77.1 49.8,76.9 49.8,76.9 L 49.6,69.2 L 48.1,69.1 L 48.3,67.9 L 50.8,67.7 L 51,74.2 L 53.8,72.3 L 51.7,71.3 L 52.7,70.4 L 57.9,70.9 L 57.5,72.5 L 55,73 L 53.8,74.9 L 55.8,76.8 L 57.5,77.4 L 57.3,79.7 L 53.1,79.2 L 53.4,77.6 L 55.1,77.4 L 52,75.4 L 51.2,76.2 L 51.4,77.6 L 52.6,77.6 z"
     id="path3056"
     inkscape:connector-curvature="0" />
  <path
     style="fill:none;stroke:#000000;stroke-width:1px;stroke-linecap:butt;stroke-linejoin:miter;stroke-opacity:1"
     d="M 66.3,78.8 L 59.7,79 L 59.6,76.6 L 61.6,77.4 L 61.8,72.6 L 60.3,72.5 L 60.4,70.6 L 63.7,71.1 L 63.9,77.3 L 66.4,77.1 z"
     id="path3058"
     inkscape:connector-curvature="0" />
  <path
     style="fill:none;stroke:#000000;stroke-width:1px;stroke-linecap:butt;stroke-linejoin:miter;stroke-opacity:1"
     d="M 63.5,69.9 L 62,69.6 L 61.6,67.5 L 63.3,67.9 z"
     id="path3060"
     inkscape:connector-curvature="0" />
  <path
     style="fill:none;stroke:#000000;stroke-width:1px;stroke-linecap:butt;stroke-linejoin:miter;stroke-opacity:1"
     d="M 68.3,70.6 C 68.3,70.6 68.1,72 68.8,72 C 69.5,72 70,72 70,72 L 69.7,77.3 L 68,77.1 L 68.1,78.5 L 73.1,78.5 L 72.8,76.9 L 71,76.9 L 70.5,73.3 L 72.8,72.1 L 74.6,71.8 L 75.2,76.6 L 73.6,76.6 L 73.4,78.1 L 77.9,78 L 77.6,76.6 L 75.7,76.6 L 75.8,72.5 L 74.6,70.6 L 73.1,70.2 L 71.2,71.6 L 70,70.6 z"
     id="path3062"
     inkscape:connector-curvature="0" />
  <path
     style="fill:none;stroke:#000000;stroke-width:1px;stroke-linecap:butt;stroke-linejoin:miter;stroke-opacity:1"
     d="M 86.7,73.2 L 85.9,72.3 L 86.1,71.8 L 85.1,71.9 L 85.6,73.9 L 84.8,75.6 L 83.1,76.3 L 81,75.9 L 80.4,76.6 L 80.8,77.8 L 83,76.9 L 85.8,77.1 L 87.1,78.6 L 87.6,81 L 84.8,81.8 L 81.3,81.6 L 79.4,80.4 L 79.9,78.1 L 79.3,76.7 L 80.2,75.3 L 79.7,74.1 L 80.3,72.1 L 82.2,71 L 84.2,71.5 L 85.9,70.6 L 87.5,71.9 L 87.4,72.9 z"
     id="path3064"
     inkscape:connector-curvature="0" />
  <path
     style="fill:none;stroke:#000000;stroke-width:1px;stroke-linecap:butt;stroke-linejoin:miter;stroke-opacity:1"
     d="M 83.1,75.3 L 81.4,74.8 L 81,72.5 L 82.5,71.9 L 84.3,73 L 84.2,74.3 z"
     id="path3066"
     inkscape:connector-curvature="0" />
  <path
     style="fill:none;stroke:#000000;stroke-width:1px;stroke-linecap:butt;stroke-linejoin:miter;stroke-opacity:1"
     d="M 80.3,79.9 L 81.2,78.4 L 84.1,77.8 L 86.2,78.7 L 86.1,80 L 82.8,81 z"
     id="path3068"
     inkscape:connector-curvature="0" />
  <path
     style="fill:none;stroke:#000000;stroke-width:1px;stroke-linecap:butt;stroke-linejoin:miter;stroke-opacity:1"
     d="M 106,79.2 L 98.4,78.6 L 99.3,76.9 L 101,76.9 L 101,72 L 100,72 L 100,70.4 L 102,70.6 L 102,68.5 L 104,67.2 L 107,68.4 L 108,70.6 L 106,70.2 L 106,68.9 L 104,68.9 L 104,70.4 L 105,70.8 L 104,72.8 L 103,72.1 L 103,76.9 L 106,76.9 z"
     id="path3070"
     inkscape:connector-curvature="0" />
  <path
     style="fill:none;stroke:#000000;stroke-width:1px;stroke-linecap:butt;stroke-linejoin:miter;stroke-opacity:1"
     d="M 114,79.7 L 110,77.1 L 110,72.3 L 113,71.4 L 116,73.2 L 117,76.9 L 116,79.2 z"
     id="path3072"
     inkscape:connector-curvature="0" />
  <path
     style="fill:none;stroke:#000000;stroke-width:1px;stroke-linecap:butt;stroke-linejoin:miter;stroke-opacity:1"
     d="M 113,77.6 L 111,75.9 L 112,73 L 114,73.3 L 116,75.9 z"
     id="path3074"
     inkscape:connector-curvature="0" />
  <path
     style="fill:none;stroke:#000000;stroke-width:1px;stroke-linecap:butt;stroke-linejoin:miter;stroke-opacity:1"
     d="M 120,78.3 L 126,79.2 L 127,77.4 L 123,77.6 L 124,74.2 L 126,72.3 L 126,74.5 L 128,75 L 128,71.8 L 126,70.8 L 123,72.5 L 123,71.1 L 120,71.1 L 120,72.5 L 122,72.6 L 122,77.3 L 120,76.9 z"
     id="path3076"
     inkscape:connector-curvature="0" />
  <path
     style="fill:none;stroke:#000000;stroke-width:1px;stroke-linecap:butt;stroke-linejoin:miter;stroke-opacity:1"
     d="M 144,79.3 L 140,77.1 L 141,75 L 144,74.4 L 146,73.5 L 144,72 L 143,72.6 L 143,73.8 L 141,73.7 L 141,71.6 L 143,70.4 L 147,72.1 L 148,79.2 L 146,78.3 z"
     id="path3078"
     inkscape:connector-curvature="0" />
  <path
     style="fill:none;stroke:#000000;stroke-width:1px;stroke-linecap:butt;stroke-linejoin:miter;stroke-opacity:1"
     d="M 144,77.4 L 142,77.1 L 144,75.6 L 146,75.6 L 146,76.9 z"
     id="path3080"
     inkscape:connector-curvature="0" />
  <path
     style="fill:none;stroke:#000000;stroke-width:1px;stroke-linecap:butt;stroke-linejoin:miter;stroke-opacity:1"
     d="M 24.6,98.5 L 27,98.5 L 24.3,104 L 18.1,107 L 11.3,102 L 8.74,95.4 L 11.5,88.9 L 15.7,86.3 L 22.8,86.3 L 25.7,91 L 24.3,94.4 L 20.2,92.5 L 21,89.6 L 19.7,88.6 L 15.7,89.4 L 11.8,94.1 L 12,98.5 L 14.5,102 L 19.8,102 L 22.9,102 z"
     id="path3082"
     inkscape:connector-curvature="0" />
  <path
     style="fill:none;stroke:#000000;stroke-width:1px;stroke-linecap:butt;stroke-linejoin:miter;stroke-opacity:1"
     d="M 34.1,107 C 34.2,106 34.2,99 34.2,99 L 37,99 L 37.3,102 L 42.5,104 L 46.2,104 L 47.8,101 L 43.3,97.3 L 37.7,97.8 L 35.1,93.7 L 35.4,88.9 L 42.5,86.7 L 47.4,89.6 L 47.8,86.7 L 49,87.5 L 49.1,94.9 L 46.4,93.4 L 47.1,90.6 L 44.2,89.6 L 39.9,89.6 L 37.5,91.8 L 38,94.9 L 44.5,95.6 L 48.8,97.8 L 50.2,103 L 47.4,107 L 40.9,107 L 36.3,104 z"
     id="path3084"
     inkscape:connector-curvature="0" />
  <path
     style="fill:none;stroke:#000000;stroke-width:1px;stroke-linecap:butt;stroke-linejoin:miter;stroke-opacity:1"
     d="M 58.2,107 L 58.7,98.7 L 60.6,99 L 60.6,102 L 64.5,104 L 69.8,105 L 72.8,102 L 70.4,98.5 L 62.8,97.3 L 59.2,94.6 L 59.4,89.6 L 65.4,86.9 L 71,88.9 L 71.6,86.7 C 71.6,86.7 73.3,86 73.4,87.4 C 73.6,88.7 73.1,95.4 73.1,95.4 L 70.9,94.1 L 71.2,90.6 L 67.5,89.6 L 62.8,89.9 L 61.5,93.4 L 63.7,94.7 L 71.6,96.4 L 74.3,99.9 L 73.8,104 L 69.7,108 L 64.4,106 L 60.6,105 z"
     id="path3086"
     inkscape:connector-curvature="0" />
  <path
     style="fill:none;stroke:#000000;stroke-width:1px;stroke-linecap:butt;stroke-linejoin:miter;stroke-opacity:1"
     d="M 94.3,89.1 L 94.8,93.2 L 97.8,94.2 L 100,91 L 95.5,86 L 88.5,86.7 L 83.5,91 L 82.3,97 L 84.1,103 L 89.9,106 L 95.9,105 L 98.4,102 L 100,98.2 L 97.9,97.6 L 96,101 L 91.9,103 L 87.1,100 L 84.9,95.2 L 87.7,90.5 L 91.6,88.6 z"
     id="path3088"
     inkscape:connector-curvature="0" />
  <path
     style="fill:none;stroke:#000000;stroke-width:1px;stroke-linecap:butt;stroke-linejoin:miter;stroke-opacity:1"
     d="M 113,87.2 L 107,89.3 L 107,93.9 L 108,97.3 L 105,99.9 L 107,104 L 105,108 L 108,113 L 117,114 L 124,112 L 124,105 L 122,103 L 117,101 L 109,103 L 108,99.2 L 111,98.8 L 112,101 L 119,98.8 L 120,94.4 L 119,90.8 L 121,89.3 L 122,92.2 L 125,92.9 L 125,88.6 L 121,86.9 L 117,89.1 z"
     id="path3090"
     inkscape:connector-curvature="0" />
  <path
     style="fill:none;stroke:#000000;stroke-width:1px;stroke-linecap:butt;stroke-linejoin:miter;stroke-opacity:1"
     d="M 109,91.3 L 113,88.7 L 116,90.6 L 117,93.7 L 115,98 L 111,97 L 109,94.7 z"
     id="path3092"
     inkscape:connector-curvature="0" />
  <path
     style="fill:none;stroke:#000000;stroke-width:1px;stroke-linecap:butt;stroke-linejoin:miter;stroke-opacity:1"
     d="M 133,89.3 C 133,89.3 131,95.9 131,96.6 C 131,97.3 133,103 133,103 L 138,104 L 144,105 L 148,103 L 148,98.7 L 146,98.2 L 144,102 L 139,103 L 135,99.9 L 133,96.3 L 135,91.3 L 139,89.1 L 143,89.4 L 142,92.7 L 145,93.2 L 148,91.8 L 146,88.1 L 141,85.8 L 136,86.5 z"
     id="path3096"
     inkscape:connector-curvature="0" />
  <path
     style="fill:none;stroke:#000000;stroke-width:1px;stroke-linecap:butt;stroke-linejoin:miter;stroke-opacity:1"
     d="M 173,106 L 154,106 C 154,106 156,97.5 157,96.8 C 158,96.1 166,93 166,93 L 170,89.3 L 170,86 L 167,82.1 C 167,82.1 161,81.2 160,81.9 C 160,82.6 155,88.1 155,88.1 L 153,86.5 L 156,82.6 L 164,79.3 L 170,82.1 L 173,87.9 L 170,93.4 L 163,97.6 L 158,101 L 156,104 L 169,104 L 174,103 z"
     id="path3098"
     inkscape:connector-curvature="0" />
  <path
     style="fill:none;stroke:#000000;stroke-width:1px;stroke-linecap:butt;stroke-linejoin:miter;stroke-opacity:1"
     d="M 187,106 L 180,104 L 178,93.9 L 182,82.4 L 189,80.9 L 196,83.8 L 198,93 L 197,102 L 193,108 z"
     id="path3100"
     inkscape:connector-curvature="0" />
  <path
     style="fill:none;stroke:#000000;stroke-width:1px;stroke-linecap:butt;stroke-linejoin:miter;stroke-opacity:1"
     d="M 191,104 L 184,103 C 184,103 181,96.4 181,95.8 C 181,95.1 182,84.1 182,84.1 L 189,83.3 L 195,88.7 L 194,97.6 z"
     id="path3102"
     inkscape:connector-curvature="0" />
  <path
     style="fill:none;stroke:#000000;stroke-width:1px;stroke-linecap:butt;stroke-linejoin:miter;stroke-opacity:1"
     d="M 204,107 L 211,106 L 221,108 L 222,104 L 214,103 L 213,79.5 L 204,79.7 L 205,83.9 L 210,83.4 L 210,104 L 203,104 z"
     id="path3104"
     inkscape:connector-curvature="0" />
  <path
     style="fill:none;stroke:#000000;stroke-width:1px;stroke-linecap:butt;stroke-linejoin:miter;stroke-opacity:1"
     d="M 227,107 L 247,106 L 247,103 L 230,104 L 231,97.8 L 237,96.1 L 244,92.7 L 247,88.2 L 243,81.6 L 238,78.8 L 231,80.7 L 227,86.5 L 229,87.7 L 233,83.3 L 238,81.7 L 242,84.3 L 243,89.1 L 239,92.9 L 231,96.3 L 228,101 z"
     id="path3106"
     inkscape:connector-curvature="0" />
  <path
     style="fill:none;stroke:#000000;stroke-width:1px;stroke-linecap:butt;stroke-linejoin:miter;stroke-opacity:1"
     d="M 145,114 C 145,114 146,114 146,114 C 146,114 146,117 146,117 C 146,117 150,117 150,117 L 150,118 L 146,118 C 146,118 146,122 146,122 C 146,123 147,124 147,124 L 149,123 L 149,121 L 150,121 L 150,123 L 148,125 L 146,124 L 145,123 L 145,118 L 144,118 L 144,116 L 145,117 z"
     id="path3108"
     inkscape:connector-curvature="0" />
  <path
     style="fill:none;stroke:#000000;stroke-width:1px;stroke-linecap:butt;stroke-linejoin:miter;stroke-opacity:1"
     d="M 152,113 L 152,114 L 154,115 L 154,123 L 152,123 L 152,124 L 156,124 C 156,124 157,123 156,123 C 156,123 155,123 155,123 L 155,119 L 157,117 L 158,118 L 159,120 L 159,123 L 157,123 L 157,124 L 162,124 L 162,123 L 160,123 L 160,118 L 159,116 L 157,116 L 155,117 L 155,113 z"
     id="path3110"
     inkscape:connector-curvature="0" />
  <path
     style="fill:none;stroke:#000000;stroke-width:1px;stroke-linecap:butt;stroke-linejoin:miter;stroke-opacity:1"
     d="M 171,122 L 167,124 L 164,122 L 164,118 L 168,115 L 171,118 L 171,121 L 165,120 L 166,122 L 168,123 L 171,121 z"
     id="path3112"
     inkscape:connector-curvature="0"
     sodipodi:nodetypes="cccccccccccc" />
  <path
     style="fill:none;stroke:#000000;stroke-width:1px;stroke-linecap:butt;stroke-linejoin:miter;stroke-opacity:1"
     d="M 166,119 L 170,120 L 169,117 L 167,117 z"
     id="path3114"
     inkscape:connector-curvature="0" />
  <path
     style="fill:none;stroke:#000000;stroke-width:1px;stroke-linecap:butt;stroke-linejoin:miter;stroke-opacity:1"
     d="M 173,116 L 172,118 L 173,118 L 174,122 L 173,123 L 173,124 L 175,124 L 176,122 L 175,121 L 175,117 L 176,117 L 176,122 L 176,123 L 176,124 L 179,124 L 179,123 L 178,122 L 178,119 L 179,117 L 180,118 L 180,122 L 179,123 L 179,124 L 182,124 L 182,123 L 181,122 L 181,117 L 179,116 L 177,117 L 177,116 L 174,116 z"
     id="path3116"
     inkscape:connector-curvature="0" />
  <path
     style="fill:none;stroke:#000000;stroke-width:1px;stroke-linecap:butt;stroke-linejoin:miter;stroke-opacity:1"
     d="M 190,123 L 188,124 L 185,124 L 184,120 L 186,116 L 189,116 L 191,118 L 192,120 L 185,120 L 186,122 L 188,123 L 190,122 z"
     id="path3118"
     inkscape:connector-curvature="0" />
  <path
     style="fill:none;stroke:#000000;stroke-width:1px;stroke-linecap:butt;stroke-linejoin:miter;stroke-opacity:1"
     d="M 189,119 L 186,119 L 187,117 L 189,117 z"
     id="path3120"
     inkscape:connector-curvature="0" />
</svg>
