[Module]
VortexTrackerII=1
Version=3.6
Title=Maple Leaf Rag
Author=Scott Joplin
NoteTable=1
Speed=6
PlayOrder=L0,1,2,3,4,5,6,7,8,9,10

[Ornament1]
L0

[Sample1]
Tne +000_ +00_ D- L

[Pattern0]
....|..|C-4 1..F ....|C-4 1..F ....|C-4 1..F ....
....|..|--- .... ....|--- .... ....|--- .... ....
....|..|F-4 .... ....|--- .... ....|--- .... ....
....|..|--- .... ....|F-5 .... ....|--- .... ....
....|..|C-6 .... ....|A-4 .... ....|C-5 .... ....
....|..|F-5 .... ....|--- .... ....|--- .... ....
....|..|A-5 .... ....|A-4 .... ....|C-5 .... ....
....|..|C-6 .... ....|--- .... ....|--- .... ....
....|..|--- .... ....|F-4 .... ....|--- .... ....
....|..|F-5 .... ....|--- .... ....|--- .... ....
....|..|C-6 .... ....|G-4 .... ....|--- .... ....
....|..|E-5 .... ....|--- .... ....|--- .... ....
....|..|G-5 .... ....|A#4 .... ....|C-5 .... ....
....|..|C-6 .... ....|--- .... ....|--- .... ....
....|..|--- .... ....|A#4 .... ....|C-5 .... ....
....|..|--- .... ....|--- .... ....|--- .... ....
....|..|--- .... ....|C-4 .... ....|--- .... ....
....|..|--- .... ....|--- .... ....|--- .... ....
....|..|F-4 .... ....|--- .... ....|--- .... ....
....|..|--- .... ....|F-5 .... ....|--- .... ....
....|..|C-6 .... ....|A-4 .... ....|C-5 .... ....
....|..|F-5 .... ....|--- .... ....|--- .... ....
....|..|A-5 .... ....|A-4 .... ....|C-5 .... ....
....|..|C-6 .... ....|--- .... ....|--- .... ....
....|..|--- .... ....|F-4 .... ....|--- .... ....
....|..|F-5 .... ....|--- .... ....|--- .... ....
....|..|C-6 .... ....|G-4 .... ....|--- .... ....
....|..|E-5 .... ....|--- .... ....|--- .... ....
....|..|G-5 .... ....|A#4 .... ....|C-5 .... ....
....|..|C-6 .... ....|--- .... ....|--- .... ....
....|..|--- .... ....|A#4 .... ....|C-5 .... ....
....|..|--- .... ....|--- .... ....|--- .... ....
....|..|--- .... ....|C-4 .... ....|--- .... ....
....|..|--- .... ....|--- .... ....|--- .... ....
....|..|C#4 .... ....|--- .... ....|--- .... ....
....|..|--- .... ....|F-5 .... ....|--- .... ....
....|..|--- .... ....|G#5 .... ....|--- .... ....
....|..|--- .... ....|C#6 .... ....|--- .... ....
....|..|C-4 .... ....|--- .... ....|--- .... ....
....|..|--- .... ....|C-6 .... ....|--- .... ....
....|..|--- .... ....|--- .... ....|--- .... ....
....|..|--- .... ....|--- .... ....|--- .... ....
....|..|C-4 .... ....|--- .... ....|--- .... ....
....|..|--- .... ....|C-6 .... ....|--- .... ....
....|..|C#4 .... ....|--- .... ....|--- .... ....
....|..|--- .... ....|F-5 .... ....|--- .... ....
....|..|--- .... ....|G#5 .... ....|--- .... ....
....|..|--- .... ....|C#6 .... ....|--- .... ....
....|..|C-4 .... ....|--- .... ....|--- .... ....
....|..|--- .... ....|C-6 .... ....|--- .... ....
....|..|--- .... ....|--- .... ....|--- .... ....
....|..|--- .... ....|--- .... ....|--- .... ....
....|..|F-4 .... ....|--- .... ....|--- .... ....
....|..|G#4 .... ....|--- .... ....|--- .... ....
....|..|C-5 .... ....|--- .... ....|--- .... ....
....|..|F-5 .... ....|--- .... ....|--- .... ....
....|..|F-5 .... ....|--- .... ....|--- .... ....
....|..|G#5 .... ....|--- .... ....|--- .... ....
....|..|C-6 .... ....|--- .... ....|--- .... ....
....|..|F-6 .... ....|--- .... ....|--- .... ....
....|..|F-5 .... ....|--- .... ....|--- .... ....
....|..|G#5 .... ....|--- .... ....|--- .... ....
....|..|C-6 .... ....|--- .... ....|--- .... ....
....|..|F-6 .... ....|--- .... ....|--- .... ....

[Pattern1]
....|..|F-6 .... ....|--- .... ....|--- .... ....
....|..|G#6 .... ....|--- .... ....|--- .... ....
....|..|C-7 .... ....|--- .... ....|--- .... ....
....|..|F-7 .... ....|--- .... ....|--- .... ....
....|..|F-7 .... ....|F-4 .... ....|G#4 .... ....
....|..|--- .... ....|--- .... ....|--- .... ....
....|..|F-7 .... ....|F-4 .... ....|G#4 .... ....
....|..|--- .... ....|--- .... ....|--- .... ....
....|..|F-7 .... ....|F-4 .... ....|G#4 .... ....
....|..|--- .... ....|--- .... ....|--- .... ....
....|..|F-7 .... ....|F-4 .... ....|G#4 .... ....
....|..|F-7 .... ....|--- .... ....|--- .... ....
....|..|--- .... ....|F-4 .... ....|A-4 .... ....
....|..|C-7 .... ....|--- .... ....|--- .... ....
....|..|D-7 .... ....|F-4 .... ....|A-4 .... ....
....|..|A-6 .... ....|--- .... ....|--- .... ....
....|..|C-7 .... ....|F-4 .... ....|A-4 .... ....
....|..|D-7 .... ....|--- .... ....|--- .... ....
....|..|--- .... ....|F-4 .... ....|A-4 .... ....
....|..|--- .... ....|--- .... ....|--- .... ....
....|..|F-6 .... ....|F-4 .... ....|G#4 .... ....
....|..|G-6 .... ....|--- .... ....|--- .... ....
....|..|G#6 .... ....|F-4 .... ....|G#4 .... ....
....|..|F-6 .... ....|--- .... ....|--- .... ....
....|..|G-6 .... ....|F-4 .... ....|A-4 .... ....
....|..|A-6 .... ....|--- .... ....|--- .... ....
....|..|--- .... ....|F-4 .... ....|A-4 .... ....
....|..|--- .... ....|--- .... ....|--- .... ....
....|..|--- .... ....|--- .... ....|--- .... ....
....|..|F-6 .... ....|--- .... ....|--- .... ....
....|..|A-6 .... ....|F-4 .... ....|A-4 .... ....
....|..|F-6 .... ....|--- .... ....|--- .... ....
....|..|G-6 .... ....|C-4 .... ....|A#4 .... ....
....|..|--- .... ....|--- .... ....|--- .... ....
....|..|F-6 .... ....|F-4 .... ....|A-4 .... ....
....|..|--- .... ....|--- .... ....|--- .... ....
....|..|--- .... ....|--- .... ....|--- .... ....
....|..|--- .... ....|--- .... ....|--- .... ....
....|..|F-6 .... ....|F-4 .... ....|G#4 .... ....
....|..|--- .... ....|--- .... ....|--- .... ....
....|..|F-6 .... ....|F-4 .... ....|G#4 .... ....
....|..|--- .... ....|--- .... ....|--- .... ....
....|..|F-6 .... ....|F-4 .... ....|G#4 .... ....
....|..|--- .... ....|--- .... ....|--- .... ....
....|..|F-6 .... ....|F-4 .... ....|G#4 .... ....
....|..|F-6 .... ....|--- .... ....|--- .... ....
....|..|--- .... ....|F-4 .... ....|A-4 .... ....
....|..|C-6 .... ....|--- .... ....|--- .... ....
....|..|D-6 .... ....|F-4 .... ....|A-4 .... ....
....|..|A-5 .... ....|--- .... ....|--- .... ....
....|..|C-6 .... ....|F-4 .... ....|A-4 .... ....
....|..|D-6 .... ....|--- .... ....|--- .... ....
....|..|--- .... ....|F-4 .... ....|A-4 .... ....
....|..|--- .... ....|--- .... ....|--- .... ....
....|..|F-5 .... ....|F-4 .... ....|G#4 .... ....
....|..|G-5 .... ....|--- .... ....|--- .... ....
....|..|G#5 .... ....|F-4 .... ....|G#4 .... ....
....|..|F-5 .... ....|--- .... ....|--- .... ....
....|..|G-5 .... ....|F-4 .... ....|A-4 .... ....
....|..|A-5 .... ....|--- .... ....|--- .... ....
....|..|--- .... ....|F-4 .... ....|A-4 .... ....
....|..|F-5 .... ....|--- .... ....|--- .... ....
....|..|A-5 .... ....|F-4 .... ....|A-4 .... ....
....|..|F-5 .... ....|--- .... ....|--- .... ....

[Pattern2]
....|..|G-5 .... ....|C-4 .... ....|A#4 .... ....
....|..|--- .... ....|--- .... ....|--- .... ....
....|..|F-5 .... ....|F-4 .... ....|A-4 .... ....
....|..|--- .... ....|--- .... ....|--- .... ....
....|..|--- .... ....|--- .... ....|--- .... ....
....|..|--- .... ....|--- .... ....|--- .... ....
....|..|F-4 .... ....|--- .... ....|--- .... ....
....|..|--- .... ....|F-5 .... ....|--- .... ....
....|..|C-6 .... ....|A-4 .... ....|C-5 .... ....
....|..|F-5 .... ....|--- .... ....|--- .... ....
....|..|A-5 .... ....|A-4 .... ....|C-5 .... ....
....|..|C-6 .... ....|--- .... ....|--- .... ....
....|..|--- .... ....|F-4 .... ....|--- .... ....
....|..|F-5 .... ....|--- .... ....|--- .... ....
....|..|C-6 .... ....|G-4 .... ....|--- .... ....
....|..|E-5 .... ....|--- .... ....|--- .... ....
....|..|G-5 .... ....|A#4 .... ....|C-5 .... ....
....|..|C-6 .... ....|--- .... ....|--- .... ....
....|..|--- .... ....|A#4 .... ....|C-5 .... ....
....|..|--- .... ....|--- .... ....|--- .... ....
....|..|--- .... ....|C-4 .... ....|--- .... ....
....|..|--- .... ....|--- .... ....|--- .... ....
....|..|F-4 .... ....|--- .... ....|--- .... ....
....|..|--- .... ....|F-5 .... ....|--- .... ....
....|..|C-6 .... ....|A-4 .... ....|C-5 .... ....
....|..|F-5 .... ....|--- .... ....|--- .... ....
....|..|A-5 .... ....|A-4 .... ....|C-5 .... ....
....|..|C-6 .... ....|--- .... ....|--- .... ....
....|..|--- .... ....|F-4 .... ....|--- .... ....
....|..|F-5 .... ....|--- .... ....|--- .... ....
....|..|C-6 .... ....|G-4 .... ....|--- .... ....
....|..|E-5 .... ....|--- .... ....|--- .... ....
....|..|G-5 .... ....|A#4 .... ....|C-5 .... ....
....|..|C-6 .... ....|--- .... ....|--- .... ....
....|..|--- .... ....|A#4 .... ....|C-5 .... ....
....|..|--- .... ....|--- .... ....|--- .... ....
....|..|--- .... ....|C-4 .... ....|--- .... ....
....|..|--- .... ....|--- .... ....|--- .... ....
....|..|C#4 .... ....|--- .... ....|--- .... ....
....|..|--- .... ....|F-5 .... ....|--- .... ....
....|..|--- .... ....|G#5 .... ....|--- .... ....
....|..|--- .... ....|C#6 .... ....|--- .... ....
....|..|C-4 .... ....|--- .... ....|--- .... ....
....|..|--- .... ....|C-6 .... ....|--- .... ....
....|..|C-4 .... ....|--- .... ....|--- .... ....
....|..|--- .... ....|C-6 .... ....|--- .... ....
....|..|C#4 .... ....|--- .... ....|--- .... ....
....|..|--- .... ....|F-5 .... ....|--- .... ....
....|..|--- .... ....|G#5 .... ....|--- .... ....
....|..|--- .... ....|C#6 .... ....|--- .... ....
....|..|C-4 .... ....|--- .... ....|--- .... ....
....|..|--- .... ....|C-6 .... ....|--- .... ....
....|..|--- .... ....|--- .... ....|--- .... ....
....|..|--- .... ....|--- .... ....|--- .... ....
....|..|F-4 .... ....|--- .... ....|--- .... ....
....|..|G#4 .... ....|--- .... ....|--- .... ....
....|..|C-5 .... ....|--- .... ....|--- .... ....
....|..|F-5 .... ....|--- .... ....|--- .... ....
....|..|F-5 .... ....|--- .... ....|--- .... ....
....|..|G#5 .... ....|--- .... ....|--- .... ....
....|..|C-6 .... ....|--- .... ....|--- .... ....
....|..|F-6 .... ....|--- .... ....|--- .... ....
....|..|F-5 .... ....|--- .... ....|--- .... ....
....|..|G#5 .... ....|--- .... ....|--- .... ....

[Pattern3]
....|..|C-6 .... ....|--- .... ....|--- .... ....
....|..|F-6 .... ....|--- .... ....|--- .... ....
....|..|F-6 .... ....|--- .... ....|--- .... ....
....|..|G#6 .... ....|--- .... ....|--- .... ....
....|..|C-7 .... ....|--- .... ....|--- .... ....
....|..|F-7 .... ....|--- .... ....|--- .... ....
....|..|F-7 .... ....|F-4 .... ....|G#4 .... ....
....|..|--- .... ....|--- .... ....|--- .... ....
....|..|F-7 .... ....|F-4 .... ....|G#4 .... ....
....|..|--- .... ....|--- .... ....|--- .... ....
....|..|F-7 .... ....|F-4 .... ....|G#4 .... ....
....|..|--- .... ....|--- .... ....|--- .... ....
....|..|F-7 .... ....|F-4 .... ....|G#4 .... ....
....|..|F-7 .... ....|--- .... ....|--- .... ....
....|..|--- .... ....|F-4 .... ....|A-4 .... ....
....|..|C-7 .... ....|--- .... ....|--- .... ....
....|..|D-7 .... ....|F-4 .... ....|A-4 .... ....
....|..|A-6 .... ....|--- .... ....|--- .... ....
....|..|C-7 .... ....|F-4 .... ....|A-4 .... ....
....|..|D-7 .... ....|--- .... ....|--- .... ....
....|..|--- .... ....|F-4 .... ....|A-4 .... ....
....|..|--- .... ....|--- .... ....|--- .... ....
....|..|F-6 .... ....|F-4 .... ....|G#4 .... ....
....|..|G-6 .... ....|--- .... ....|--- .... ....
....|..|G#6 .... ....|F-4 .... ....|G#4 .... ....
....|..|F-6 .... ....|--- .... ....|--- .... ....
....|..|G-6 .... ....|F-4 .... ....|A-4 .... ....
....|..|A-6 .... ....|--- .... ....|--- .... ....
....|..|--- .... ....|F-4 .... ....|A-4 .... ....
....|..|F-6 .... ....|--- .... ....|--- .... ....
....|..|A-6 .... ....|F-4 .... ....|A-4 .... ....
....|..|F-6 .... ....|--- .... ....|--- .... ....
....|..|G-6 .... ....|C-4 .... ....|A#4 .... ....
....|..|--- .... ....|--- .... ....|--- .... ....
....|..|F-6 .... ....|F-4 .... ....|A-4 .... ....
....|..|--- .... ....|--- .... ....|--- .... ....
....|..|--- .... ....|--- .... ....|--- .... ....
....|..|--- .... ....|--- .... ....|--- .... ....
....|..|F-6 .... ....|F-4 .... ....|G#4 .... ....
....|..|--- .... ....|--- .... ....|--- .... ....
....|..|F-6 .... ....|F-4 .... ....|G#4 .... ....
....|..|--- .... ....|--- .... ....|--- .... ....
....|..|F-6 .... ....|F-4 .... ....|G#4 .... ....
....|..|--- .... ....|--- .... ....|--- .... ....
....|..|F-6 .... ....|F-4 .... ....|G#4 .... ....
....|..|F-6 .... ....|--- .... ....|--- .... ....
....|..|--- .... ....|F-4 .... ....|A-4 .... ....
....|..|C-6 .... ....|--- .... ....|--- .... ....
....|..|D-6 .... ....|F-4 .... ....|A-4 .... ....
....|..|A-5 .... ....|--- .... ....|--- .... ....
....|..|C-6 .... ....|F-4 .... ....|A-4 .... ....
....|..|D-6 .... ....|--- .... ....|--- .... ....
....|..|--- .... ....|F-4 .... ....|A-4 .... ....
....|..|--- .... ....|--- .... ....|--- .... ....
....|..|F-5 .... ....|F-4 .... ....|G#4 .... ....
....|..|G-5 .... ....|--- .... ....|--- .... ....
....|..|G#5 .... ....|F-4 .... ....|G#4 .... ....
....|..|F-5 .... ....|--- .... ....|--- .... ....
....|..|G-5 .... ....|F-4 .... ....|A-4 .... ....
....|..|A-5 .... ....|--- .... ....|--- .... ....
....|..|--- .... ....|F-4 .... ....|A-4 .... ....
....|..|F-5 .... ....|--- .... ....|--- .... ....
....|..|A-5 .... ....|F-4 .... ....|A-4 .... ....
....|..|F-5 .... ....|--- .... ....|--- .... ....

[Pattern4]
....|..|G-5 .... ....|C-4 .... ....|A#4 .... ....
....|..|--- .... ....|--- .... ....|--- .... ....
....|..|F-5 .... ....|F-4 .... ....|A-4 .... ....
....|..|--- .... ....|--- .... ....|--- .... ....
....|..|F#4 .... ....|--- .... ....|--- .... ....
....|..|--- .... ....|--- .... ....|--- .... ....
....|..|G-4 .... ....|--- .... ....|--- .... ....
....|..|--- .... ....|E-6 .... ....|--- .... ....
....|..|C-7 .... ....|A#4 .... ....|C-5 .... ....
....|..|E-6 .... ....|--- .... ....|--- .... ....
....|..|G-6 .... ....|C-4 .... ....|--- .... ....
....|..|B-6 .... ....|--- .... ....|--- .... ....
....|..|--- .... ....|A#4 .... ....|C-5 .... ....
....|..|E-6 .... ....|--- .... ....|--- .... ....
....|..|A#6 .... ....|G-4 .... ....|--- .... ....
....|..|E-6 .... ....|--- .... ....|--- .... ....
....|..|G-6 .... ....|A#4 .... ....|C-5 .... ....
....|..|A-6 .... ....|--- .... ....|--- .... ....
....|..|--- .... ....|C-4 .... ....|--- .... ....
....|..|C-6 .... ....|--- .... ....|--- .... ....
....|..|G-6 .... ....|A#4 .... ....|C-5 .... ....
....|..|C-6 .... ....|--- .... ....|--- .... ....
....|..|F-4 .... ....|--- .... ....|--- .... ....
....|..|--- .... ....|A-5 .... ....|--- .... ....
....|..|F-6 .... ....|A-4 .... ....|C-5 .... ....
....|..|A-5 .... ....|--- .... ....|--- .... ....
....|..|C-6 .... ....|C-4 .... ....|--- .... ....
....|..|D-6 .... ....|--- .... ....|--- .... ....
....|..|--- .... ....|A-4 .... ....|C-5 .... ....
....|..|C-6 .... ....|--- .... ....|--- .... ....
....|..|F-6 .... ....|F-4 .... ....|--- .... ....
....|..|A-5 .... ....|--- .... ....|--- .... ....
....|..|C-6 .... ....|A-4 .... ....|C-5 .... ....
....|..|D-6 .... ....|--- .... ....|--- .... ....
....|..|--- .... ....|C-4 .... ....|--- .... ....
....|..|--- .... ....|--- .... ....|--- .... ....
....|..|--- .... ....|--- .... ....|--- .... ....
....|..|A-5 .... ....|--- .... ....|--- .... ....
....|..|D-6 .... ....|A-4 .... ....|C-5 .... ....
....|..|--- .... ....|--- .... ....|--- .... ....
....|..|G-4 .... ....|--- .... ....|--- .... ....
....|..|--- .... ....|C-6 .... ....|--- .... ....
....|..|E-6 .... ....|A#4 .... ....|C-5 .... ....
....|..|G-5 .... ....|--- .... ....|--- .... ....
....|..|A#5 .... ....|C-4 .... ....|--- .... ....
....|..|D-6 .... ....|--- .... ....|--- .... ....
....|..|--- .... ....|A#4 .... ....|C-5 .... ....
....|..|C-6 .... ....|--- .... ....|--- .... ....
....|..|E-6 .... ....|G-4 .... ....|--- .... ....
....|..|G-5 .... ....|--- .... ....|--- .... ....
....|..|A#5 .... ....|A#4 .... ....|C-5 .... ....
....|..|D-6 .... ....|--- .... ....|--- .... ....
....|..|--- .... ....|C-4 .... ....|--- .... ....
....|..|A#5 .... ....|--- .... ....|--- .... ....
....|..|D-6 .... ....|A#4 .... ....|C-5 .... ....
....|..|--- .... ....|--- .... ....|--- .... ....
....|..|F-4 .... ....|--- .... ....|--- .... ....
....|..|--- .... ....|A-5 .... ....|--- .... ....
....|..|F-6 .... ....|A-4 .... ....|C-5 .... ....
....|..|A-5 .... ....|--- .... ....|--- .... ....
....|..|C-6 .... ....|C-4 .... ....|--- .... ....
....|..|D-6 .... ....|--- .... ....|--- .... ....
....|..|--- .... ....|A-4 .... ....|C-5 .... ....
....|..|C-6 .... ....|--- .... ....|--- .... ....

[Pattern5]
....|..|F-6 .... ....|F-4 .... ....|--- .... ....
....|..|A-5 .... ....|--- .... ....|--- .... ....
....|..|C-6 .... ....|A-4 .... ....|C-5 .... ....
....|..|D-6 .... ....|--- .... ....|--- .... ....
....|..|--- .... ....|C-4 .... ....|--- .... ....
....|..|A-5 .... ....|--- .... ....|--- .... ....
....|..|D-6 .... ....|A-4 .... ....|C-5 .... ....
....|..|--- .... ....|--- .... ....|--- .... ....
....|..|G-4 .... ....|--- .... ....|--- .... ....
....|..|--- .... ....|E-6 .... ....|--- .... ....
....|..|C-7 .... ....|A#4 .... ....|C-5 .... ....
....|..|E-6 .... ....|--- .... ....|--- .... ....
....|..|G-6 .... ....|C-4 .... ....|--- .... ....
....|..|B-6 .... ....|--- .... ....|--- .... ....
....|..|--- .... ....|A#4 .... ....|C-5 .... ....
....|..|E-6 .... ....|--- .... ....|--- .... ....
....|..|A#6 .... ....|G-4 .... ....|--- .... ....
....|..|E-6 .... ....|--- .... ....|--- .... ....
....|..|G-6 .... ....|A#4 .... ....|C-5 .... ....
....|..|A-6 .... ....|--- .... ....|--- .... ....
....|..|--- .... ....|C-4 .... ....|--- .... ....
....|..|C-6 .... ....|--- .... ....|--- .... ....
....|..|G-6 .... ....|A#4 .... ....|C-5 .... ....
....|..|C-6 .... ....|--- .... ....|--- .... ....
....|..|F-4 .... ....|--- .... ....|--- .... ....
....|..|--- .... ....|A-5 .... ....|--- .... ....
....|..|F-6 .... ....|A-4 .... ....|C-5 .... ....
....|..|A-5 .... ....|--- .... ....|--- .... ....
....|..|C-6 .... ....|C-4 .... ....|--- .... ....
....|..|D-6 .... ....|--- .... ....|--- .... ....
....|..|--- .... ....|A-4 .... ....|C-5 .... ....
....|..|A-5 .... ....|--- .... ....|--- .... ....
....|..|F-6 .... ....|F-4 .... ....|--- .... ....
....|..|--- .... ....|--- .... ....|--- .... ....
....|..|A-5 .... ....|F-6 .... ....|F-4 .... ....
....|..|--- .... ....|--- .... ....|--- .... ....
....|..|G#5 .... ....|E-6 .... ....|E-4 .... ....
....|..|--- .... ....|--- .... ....|--- .... ....
....|..|G-5 .... ....|D#6 .... ....|D#4 .... ....
....|..|--- .... ....|--- .... ....|--- .... ....
....|..|D-4 .... ....|--- .... ....|--- .... ....
....|..|--- .... ....|D-5 .... ....|--- .... ....
....|..|F#5 .... ....|F#4 .... ....|A-4 .... ....
....|..|A-5 .... ....|--- .... ....|--- .... ....
....|..|D-6 .... ....|D-4 .... ....|--- .... ....
....|..|A-5 .... ....|--- .... ....|--- .... ....
....|..|F#5 .... ....|F#4 .... ....|A-4 .... ....
....|..|D-5 .... ....|--- .... ....|--- .... ....
....|..|G-4 .... ....|--- .... ....|--- .... ....
....|..|--- .... ....|D-5 .... ....|--- .... ....
....|..|G-5 .... ....|A#4 .... ....|D-5 .... ....
....|..|A#5 .... ....|--- .... ....|--- .... ....
....|..|D-6 .... ....|G-4 .... ....|--- .... ....
....|..|--- .... ....|--- .... ....|--- .... ....
....|..|A#5 .... ....|A#4 .... ....|D-5 .... ....
....|..|--- .... ....|--- .... ....|--- .... ....
....|..|--- .... ....|--- .... ....|--- .... ....
....|..|--- .... ....|--- .... ....|--- .... ....
....|..|A-5 .... ....|G-4 .... ....|B-4 .... ....
....|..|--- .... ....|--- .... ....|--- .... ....
....|..|G-4 .... ....|B-4 .... ....|--- .... ....
....|..|--- .... ....|--- .... ....|A-5 .... ....
....|..|C-4 .... ....|A#4 .... ....|--- .... ....
....|..|--- .... ....|--- .... ....|G-5 .... ....

[Pattern6]
....|..|C-4 .... ....|A#4 .... ....|--- .... ....
....|..|--- .... ....|--- .... ....|--- .... ....
....|..|F-4 .... ....|A-4 .... ....|--- .... ....
....|..|--- .... ....|--- .... ....|F-5 .... ....
....|..|A-5 .... ....|C-4 .... ....|--- .... ....
....|..|C-6 .... ....|--- .... ....|--- .... ....
....|..|F-6 .... ....|F-4 .... ....|--- .... ....
....|..|--- .... ....|--- .... ....|--- .... ....
....|..|--- .... ....|--- .... ....|--- .... ....
....|..|--- .... ....|--- .... ....|--- .... ....
....|..|F-6 .... ....|A#4 .... ....|--- .... ....
....|..|--- .... ....|--- .... ....|--- .... ....
....|..|D-6 .... ....|D-5 .... ....|F-5 .... ....
....|..|--- .... ....|--- .... ....|--- .... ....
....|..|F-6 .... ....|F-4 .... ....|--- .... ....
....|..|--- .... ....|--- .... ....|--- .... ....
....|..|D-6 .... ....|D-5 .... ....|F-5 .... ....
....|..|--- .... ....|--- .... ....|--- .... ....
....|..|F-6 .... ....|A#4 .... ....|--- .... ....
....|..|--- .... ....|--- .... ....|--- .... ....
....|..|G-6 .... ....|D-5 .... ....|F-5 .... ....
....|..|A-6 .... ....|--- .... ....|--- .... ....
....|..|--- .... ....|G-4 .... ....|--- .... ....
....|..|G-6 .... ....|--- .... ....|--- .... ....
....|..|F-6 .... ....|G#4 .... ....|--- .... ....
....|..|D-6 .... ....|--- .... ....|--- .... ....
....|..|C-6 .... ....|A-4 .... ....|--- .... ....
....|..|D-6 .... ....|--- .... ....|--- .... ....
....|..|--- .... ....|C-5 .... ....|F-5 .... ....
....|..|A-5 .... ....|--- .... ....|--- .... ....
....|..|--- .... ....|F-4 .... ....|--- .... ....
....|..|--- .... ....|--- .... ....|--- .... ....
....|..|--- .... ....|A-4 .... ....|C-5 .... ....
....|..|--- .... ....|--- .... ....|--- .... ....
....|..|F-4 .... ....|--- .... ....|--- .... ....
....|..|--- .... ....|C-6 .... ....|--- .... ....
....|..|D-6 .... ....|A-4 .... ....|C-5 .... ....
....|..|A-5 .... ....|--- .... ....|--- .... ....
....|..|C-6 .... ....|F-4 .... ....|--- .... ....
....|..|D-6 .... ....|--- .... ....|--- .... ....
....|..|--- .... ....|F#4 .... ....|--- .... ....
....|..|A-5 .... ....|--- .... ....|--- .... ....
....|..|C-6 .... ....|G-4 .... ....|--- .... ....
....|..|D-6 .... ....|--- .... ....|--- .... ....
....|..|--- .... ....|A#4 .... ....|C-5 .... ....
....|..|G-5 .... ....|--- .... ....|--- .... ....
....|..|--- .... ....|C-4 .... ....|--- .... ....
....|..|--- .... ....|--- .... ....|--- .... ....
....|..|--- .... ....|F#4 .... ....|--- .... ....
....|..|--- .... ....|--- .... ....|--- .... ....
....|..|G-4 .... ....|--- .... ....|--- .... ....
....|..|--- .... ....|A#5 .... ....|--- .... ....
....|..|D-6 .... ....|A#4 .... ....|C-5 .... ....
....|..|G-5 .... ....|--- .... ....|--- .... ....
....|..|A#5 .... ....|C-4 .... ....|--- .... ....
....|..|D-6 .... ....|--- .... ....|--- .... ....
....|..|--- .... ....|A#4 .... ....|C-5 .... ....
....|..|A-5 .... ....|--- .... ....|--- .... ....
....|..|--- .... ....|F-4 .... ....|--- .... ....
....|..|C-6 .... ....|--- .... ....|--- .... ....
....|..|D-6 .... ....|A-4 .... ....|C-5 .... ....
....|..|A-5 .... ....|--- .... ....|--- .... ....
....|..|C-6 .... ....|C-4 .... ....|--- .... ....
....|..|D-6 .... ....|--- .... ....|--- .... ....

[Pattern7]
....|..|--- .... ....|A-4 .... ....|C-5 .... ....
....|..|A-5 .... ....|--- .... ....|--- .... ....
....|..|--- .... ....|F-4 .... ....|--- .... ....
....|..|C-6 .... ....|--- .... ....|--- .... ....
....|..|D-6 .... ....|A-4 .... ....|C-5 .... ....
....|..|A-5 .... ....|--- .... ....|--- .... ....
....|..|C-6 .... ....|C-4 .... ....|--- .... ....
....|..|D-6 .... ....|--- .... ....|--- .... ....
....|..|--- .... ....|A-4 .... ....|C-5 .... ....
....|..|C-6 .... ....|--- .... ....|--- .... ....
....|..|F-6 .... ....|A#4 .... ....|--- .... ....
....|..|--- .... ....|--- .... ....|--- .... ....
....|..|D-6 .... ....|D-5 .... ....|F-5 .... ....
....|..|--- .... ....|--- .... ....|--- .... ....
....|..|F-6 .... ....|F-4 .... ....|--- .... ....
....|..|--- .... ....|--- .... ....|--- .... ....
....|..|D-6 .... ....|D-5 .... ....|F-5 .... ....
....|..|--- .... ....|--- .... ....|--- .... ....
....|..|F-6 .... ....|A#4 .... ....|--- .... ....
....|..|--- .... ....|--- .... ....|--- .... ....
....|..|G-6 .... ....|D-5 .... ....|F-5 .... ....
....|..|A-6 .... ....|--- .... ....|--- .... ....
....|..|--- .... ....|G-4 .... ....|--- .... ....
....|..|G-6 .... ....|--- .... ....|--- .... ....
....|..|F-6 .... ....|G#4 .... ....|--- .... ....
....|..|D-6 .... ....|--- .... ....|--- .... ....
....|..|F-6 .... ....|A-4 .... ....|--- .... ....
....|..|--- .... ....|--- .... ....|--- .... ....
....|..|D-6 .... ....|C-5 .... ....|F-5 .... ....
....|..|--- .... ....|--- .... ....|--- .... ....
....|..|C-6 .... ....|F-4 .... ....|--- .... ....
....|..|F-6 .... ....|--- .... ....|--- .... ....
....|..|--- .... ....|A-4 .... ....|C-5 .... ....
....|..|A-5 .... ....|--- .... ....|--- .... ....
....|..|--- .... ....|F-4 .... ....|--- .... ....
....|..|C-6 .... ....|--- .... ....|--- .... ....
....|..|D-6 .... ....|A-4 .... ....|C-5 .... ....
....|..|A-5 .... ....|--- .... ....|--- .... ....
....|..|C-6 .... ....|C-4 .... ....|--- .... ....
....|..|D-6 .... ....|--- .... ....|--- .... ....
....|..|--- .... ....|A-4 .... ....|C-5 .... ....
....|..|F-5 .... ....|--- .... ....|--- .... ....
....|..|--- .... ....|C#4 .... ....|--- .... ....
....|..|G-5 .... ....|--- .... ....|--- .... ....
....|..|F-5 .... ....|C#5 .... ....|--- .... ....
....|..|--- .... ....|--- .... ....|--- .... ....
....|..|F-5 .... ....|A#3 .... ....|--- .... ....
....|..|--- .... ....|--- .... ....|--- .... ....
....|..|G-5 .... ....|B-3 .... ....|--- .... ....
....|..|F-5 .... ....|--- .... ....|--- .... ....
....|..|--- .... ....|C-4 .... ....|--- .... ....
....|..|G-5 .... ....|--- .... ....|--- .... ....
....|..|A-5 .... ....|C-5 .... ....|--- .... ....
....|..|F-5 .... ....|--- .... ....|--- .... ....
....|..|G-5 .... ....|C-4 .... ....|--- .... ....
....|..|A-5 .... ....|--- .... ....|--- .... ....
....|..|--- .... ....|C#4 .... ....|--- .... ....
....|..|F-5 .... ....|--- .... ....|--- .... ....
....|..|--- .... ....|C-4 .... ....|--- .... ....
....|..|G-5 .... ....|--- .... ....|--- .... ....
....|..|A-5 .... ....|C-5 .... ....|--- .... ....
....|..|F-5 .... ....|--- .... ....|--- .... ....
....|..|--- .... ....|--- .... ....|--- .... ....
....|..|--- .... ....|--- .... ....|--- .... ....

[Pattern8]
....|..|--- .... ....|C-4 .... ....|--- .... ....
....|..|G-5 .... ....|--- .... ....|--- .... ....
....|..|--- .... ....|C-4 .... ....|--- .... ....
....|..|--- .... ....|--- .... ....|--- .... ....
....|..|F-5 .... ....|F-4 .... ....|A-4 .... ....
....|..|--- .... ....|--- .... ....|--- .... ....
....|..|C-6 .... ....|--- .... ....|--- .... ....
....|..|--- .... ....|--- .... ....|--- .... ....
....|..|C-6 .... ....|--- .... ....|--- .... ....
....|..|--- .... ....|--- .... ....|--- .... ....
....|..|C-6 .... ....|--- .... ....|--- .... ....
....|..|--- .... ....|--- .... ....|--- .... ....
....|..|F-6 .... ....|A#4 .... ....|--- .... ....
....|..|--- .... ....|--- .... ....|--- .... ....
....|..|D-6 .... ....|D-5 .... ....|F-5 .... ....
....|..|--- .... ....|--- .... ....|--- .... ....
....|..|F-6 .... ....|F-4 .... ....|--- .... ....
....|..|--- .... ....|--- .... ....|--- .... ....
....|..|D-6 .... ....|D-5 .... ....|F-5 .... ....
....|..|--- .... ....|--- .... ....|--- .... ....
....|..|F-6 .... ....|A#4 .... ....|--- .... ....
....|..|--- .... ....|--- .... ....|--- .... ....
....|..|G-6 .... ....|D-5 .... ....|F-5 .... ....
....|..|A-6 .... ....|--- .... ....|--- .... ....
....|..|--- .... ....|G-4 .... ....|--- .... ....
....|..|G-6 .... ....|--- .... ....|--- .... ....
....|..|F-6 .... ....|G#4 .... ....|--- .... ....
....|..|D-6 .... ....|--- .... ....|--- .... ....
....|..|C-6 .... ....|A-4 .... ....|--- .... ....
....|..|D-6 .... ....|--- .... ....|--- .... ....
....|..|--- .... ....|C-5 .... ....|F-5 .... ....
....|..|A-5 .... ....|--- .... ....|--- .... ....
....|..|--- .... ....|F-4 .... ....|--- .... ....
....|..|--- .... ....|--- .... ....|--- .... ....
....|..|--- .... ....|A-4 .... ....|C-5 .... ....
....|..|--- .... ....|--- .... ....|--- .... ....
....|..|F-4 .... ....|--- .... ....|--- .... ....
....|..|--- .... ....|C-6 .... ....|--- .... ....
....|..|D-6 .... ....|A-4 .... ....|C-5 .... ....
....|..|A-5 .... ....|--- .... ....|--- .... ....
....|..|C-6 .... ....|F-4 .... ....|--- .... ....
....|..|D-6 .... ....|--- .... ....|--- .... ....
....|..|--- .... ....|F#4 .... ....|--- .... ....
....|..|A-5 .... ....|--- .... ....|--- .... ....
....|..|C-6 .... ....|G-4 .... ....|--- .... ....
....|..|D-6 .... ....|--- .... ....|--- .... ....
....|..|--- .... ....|A#4 .... ....|C-5 .... ....
....|..|G-5 .... ....|--- .... ....|--- .... ....
....|..|--- .... ....|C-4 .... ....|--- .... ....
....|..|--- .... ....|--- .... ....|--- .... ....
....|..|--- .... ....|F#4 .... ....|--- .... ....
....|..|--- .... ....|--- .... ....|--- .... ....
....|..|G-4 .... ....|--- .... ....|--- .... ....
....|..|--- .... ....|A#5 .... ....|--- .... ....
....|..|D-6 .... ....|A#4 .... ....|C-5 .... ....
....|..|G-5 .... ....|--- .... ....|--- .... ....
....|..|A#5 .... ....|C-4 .... ....|--- .... ....
....|..|D-6 .... ....|--- .... ....|--- .... ....
....|..|--- .... ....|A#4 .... ....|C-5 .... ....
....|..|A-5 .... ....|--- .... ....|--- .... ....
....|..|--- .... ....|F-4 .... ....|--- .... ....
....|..|C-6 .... ....|--- .... ....|--- .... ....
....|..|D-6 .... ....|A-4 .... ....|C-5 .... ....
....|..|A-5 .... ....|--- .... ....|--- .... ....

[Pattern9]
....|..|C-6 .... ....|C-4 .... ....|--- .... ....
....|..|D-6 .... ....|--- .... ....|--- .... ....
....|..|--- .... ....|A-4 .... ....|C-5 .... ....
....|..|A-5 .... ....|--- .... ....|--- .... ....
....|..|--- .... ....|F-4 .... ....|--- .... ....
....|..|C-6 .... ....|--- .... ....|--- .... ....
....|..|D-6 .... ....|A-4 .... ....|C-5 .... ....
....|..|A-5 .... ....|--- .... ....|--- .... ....
....|..|C-6 .... ....|C-4 .... ....|--- .... ....
....|..|D-6 .... ....|--- .... ....|--- .... ....
....|..|--- .... ....|A-4 .... ....|C-5 .... ....
....|..|C-6 .... ....|--- .... ....|--- .... ....
....|..|F-6 .... ....|A#4 .... ....|--- .... ....
....|..|--- .... ....|--- .... ....|--- .... ....
....|..|D-6 .... ....|D-5 .... ....|F-5 .... ....
....|..|--- .... ....|--- .... ....|--- .... ....
....|..|F-6 .... ....|F-4 .... ....|--- .... ....
....|..|--- .... ....|--- .... ....|--- .... ....
....|..|D-6 .... ....|D-5 .... ....|F-5 .... ....
....|..|--- .... ....|--- .... ....|--- .... ....
....|..|F-6 .... ....|A#4 .... ....|--- .... ....
....|..|--- .... ....|--- .... ....|--- .... ....
....|..|G-6 .... ....|D-5 .... ....|F-5 .... ....
....|..|A-6 .... ....|--- .... ....|--- .... ....
....|..|--- .... ....|G-4 .... ....|--- .... ....
....|..|G-6 .... ....|--- .... ....|--- .... ....
....|..|F-6 .... ....|G#4 .... ....|--- .... ....
....|..|D-6 .... ....|--- .... ....|--- .... ....
....|..|F-6 .... ....|A-4 .... ....|--- .... ....
....|..|--- .... ....|--- .... ....|--- .... ....
....|..|D-6 .... ....|C-5 .... ....|F-5 .... ....
....|..|--- .... ....|--- .... ....|--- .... ....
....|..|C-6 .... ....|F-4 .... ....|--- .... ....
....|..|F-6 .... ....|--- .... ....|--- .... ....
....|..|--- .... ....|A-4 .... ....|C-5 .... ....
....|..|A-5 .... ....|--- .... ....|--- .... ....
....|..|--- .... ....|F-4 .... ....|--- .... ....
....|..|C-6 .... ....|--- .... ....|--- .... ....
....|..|D-6 .... ....|A-4 .... ....|C-5 .... ....
....|..|A-5 .... ....|--- .... ....|--- .... ....
....|..|C-6 .... ....|C-4 .... ....|--- .... ....
....|..|D-6 .... ....|--- .... ....|--- .... ....
....|..|--- .... ....|A-4 .... ....|C-5 .... ....
....|..|F-5 .... ....|--- .... ....|--- .... ....
....|..|--- .... ....|C#4 .... ....|--- .... ....
....|..|G-5 .... ....|--- .... ....|--- .... ....
....|..|F-5 .... ....|C#5 .... ....|--- .... ....
....|..|--- .... ....|--- .... ....|--- .... ....
....|..|F-5 .... ....|A#3 .... ....|--- .... ....
....|..|--- .... ....|--- .... ....|--- .... ....
....|..|G-5 .... ....|B-3 .... ....|--- .... ....
....|..|F-5 .... ....|--- .... ....|--- .... ....
....|..|--- .... ....|C-4 .... ....|--- .... ....
....|..|G-5 .... ....|--- .... ....|--- .... ....
....|..|A-5 .... ....|C-5 .... ....|--- .... ....
....|..|F-5 .... ....|--- .... ....|--- .... ....
....|..|G-5 .... ....|C-4 .... ....|--- .... ....
....|..|A-5 .... ....|--- .... ....|--- .... ....
....|..|--- .... ....|C#4 .... ....|--- .... ....
....|..|F-5 .... ....|--- .... ....|--- .... ....
....|..|--- .... ....|C-4 .... ....|--- .... ....
....|..|G-5 .... ....|--- .... ....|--- .... ....
....|..|A-5 .... ....|C-5 .... ....|--- .... ....
....|..|F-5 .... ....|--- .... ....|--- .... ....

[Pattern10]
....|..|--- .... ....|C-4 .... ....|--- .... ....
....|..|G-5 .... ....|--- .... ....|--- .... ....
....|..|--- .... ....|C-4 .... ....|--- .... ....
....|..|--- .... ....|--- .... ....|--- .... ....
....|..|F-5 .... ....|F-4 .... ....|A-4 .... ....
....|..|--- .... ....|--- .... ....|--- .... ....
....|..|C-4 .... ....|--- .... ....|--- .... ....
....|..|--- .... ....|--- .... ....|--- .... ....
....|..|A-5 .... ....|F-6 .... ....|F-3 .... ....
....|..|--- .... ....|--- .... ....|--- .... ....
....|..|--- .... ....|--- .... ....|--- .... ....
....|..|--- .... ....|--- .... ....|--- .... ....
....|..|--- .... ....|--- .... ....|--- .... ....
....|..|--- .... ....|--- .... ....|--- .... ....
....|..|--- .... ....|--- .... ....|--- .... ....
....|..|--- .... ....|--- .... ....|--- .... ....
....|..|--- .... ....|--- .... ....|--- .... ....
....|..|--- .... ....|--- .... ....|--- .... ....
....|..|--- .... ....|--- .... ....|--- .... ....
....|..|--- .... ....|--- .... ....|--- .... ....
....|..|--- .... ....|--- .... ....|--- .... ....
....|..|--- .... ....|--- .... ....|--- .... ....
....|..|--- .... ....|--- .... ....|--- .... ....
....|..|--- .... ....|--- .... ....|--- .... ....
....|..|--- .... ....|--- .... ....|--- .... ....
....|..|--- .... ....|--- .... ....|--- .... ....
....|..|--- .... ....|--- .... ....|--- .... ....
....|..|--- .... ....|--- .... ....|--- .... ....
....|..|--- .... ....|--- .... ....|--- .... ....
....|..|--- .... ....|--- .... ....|--- .... ....
....|..|--- .... ....|--- .... ....|--- .... ....
....|..|--- .... ....|--- .... ....|--- .... ....
....|..|--- .... ....|--- .... ....|--- .... ....
....|..|--- .... ....|--- .... ....|--- .... ....
....|..|--- .... ....|--- .... ....|--- .... ....
....|..|--- .... ....|--- .... ....|--- .... ....
....|..|--- .... ....|--- .... ....|--- .... ....
....|..|--- .... ....|--- .... ....|--- .... ....
....|..|--- .... ....|--- .... ....|--- .... ....
....|..|--- .... ....|--- .... ....|--- .... ....
....|..|--- .... ....|--- .... ....|--- .... ....
....|..|--- .... ....|--- .... ....|--- .... ....
....|..|--- .... ....|--- .... ....|--- .... ....
....|..|--- .... ....|--- .... ....|--- .... ....
....|..|--- .... ....|--- .... ....|--- .... ....
....|..|--- .... ....|--- .... ....|--- .... ....
....|..|--- .... ....|--- .... ....|--- .... ....
....|..|--- .... ....|--- .... ....|--- .... ....
....|..|--- .... ....|--- .... ....|--- .... ....
....|..|--- .... ....|--- .... ....|--- .... ....
....|..|--- .... ....|--- .... ....|--- .... ....
....|..|--- .... ....|--- .... ....|--- .... ....
....|..|--- .... ....|--- .... ....|--- .... ....
....|..|--- .... ....|--- .... ....|--- .... ....
....|..|--- .... ....|--- .... ....|--- .... ....
....|..|--- .... ....|--- .... ....|--- .... ....
....|..|--- .... ....|--- .... ....|--- .... ....
....|..|--- .... ....|--- .... ....|--- .... ....
....|..|--- .... ....|--- .... ....|--- .... ....
....|..|--- .... ....|--- .... ....|--- .... ....
....|..|--- .... ....|--- .... ....|--- .... ....
....|..|--- .... ....|--- .... ....|--- .... ....
....|..|--- .... ....|--- .... ....|--- .... ....
....|..|--- .... ....|--- .... ....|--- .... ....

