/* XPM */
static char * xpm_xpm[] = {
"40 40 5 1",
"0 c #838B9E",
"1 c #8BF6EB",
"2 c #84D9F5",
"3 c #68B4F6",
"4 c #9EE354",
"0000000011111111222222223333333344444444",
"0000000011111111222222223333333344444444",
"0000000011111111222222223333333344444444",
"0000000011111111222222223333333344444444",
"0000000011111111222222223333333344444444",
"0000000011111111222222223333333344444444",
"0000000011111111222222223333333344444444",
"0000000011111111222222223333333344444444",
"0000000011111111222222223333333344444444",
"0000000011111111222222223333333344444444",
"0000000011111111222222223333333344444444",
"0000000011111111222222223333333344444444",
"0000000011111111222222223333333344444444",
"0000000011111111222222223333333344444444",
"0000000011111111222222223333333344444444",
"0000000011111111222222223333333344444444",
"0000000011111111222222223333333344444444",
"0000000011111111222222223333333344444444",
"0000000011111111222222223333333344444444",
"0000000011111111222222223333333344444444",
"0000000011111111222222223333333344444444",
"0000000011111111222222223333333344444444",
"0000000011111111222222223333333344444444",
"0000000011111111222222223333333344444444",
"0000000011111111222222223333333344444444",
"0000000011111111222222223333333344444444",
"0000000011111111222222223333333344444444",
"0000000011111111222222223333333344444444",
"0000000011111111222222223333333344444444",
"0000000011111111222222223333333344444444",
"0000000011111111222222223333333344444444",
"0000000011111111222222223333333344444444",
"0000000011111111222222223333333344444444",
"0000000011111111222222223333333344444444",
"0000000011111111222222223333333344444444",
"0000000011111111222222223333333344444444",
"0000000011111111222222223333333344444444",
"0000000011111111222222223333333344444444",
"0000000011111111222222223333333344444444",
"0000000011111111222222223333333344444444"};
