/* XPM */
static char * xpm_xpm[] = {
"40 40 5 1",
"0 c #CBF7EB",
"1 c #F7D2CB",
"2 c #9460D2",
"3 c #F7CBEB",
"4 c #F7F7CB",
"0000000011111111222222223333333344444444",
"0000000011111111222222223333333344444444",
"0000000011111111222222223333333344444444",
"0000000011111111222222223333333344444444",
"0000000011111111222222223333333344444444",
"0000000011111111222222223333333344444444",
"0000000011111111222222223333333344444444",
"0000000011111111222222223333333344444444",
"0000000011111111222222223333333344444444",
"0000000011111111222222223333333344444444",
"0000000011111111222222223333333344444444",
"0000000011111111222222223333333344444444",
"0000000011111111222222223333333344444444",
"0000000011111111222222223333333344444444",
"0000000011111111222222223333333344444444",
"0000000011111111222222223333333344444444",
"0000000011111111222222223333333344444444",
"0000000011111111222222223333333344444444",
"0000000011111111222222223333333344444444",
"0000000011111111222222223333333344444444",
"0000000011111111222222223333333344444444",
"0000000011111111222222223333333344444444",
"0000000011111111222222223333333344444444",
"0000000011111111222222223333333344444444",
"0000000011111111222222223333333344444444",
"0000000011111111222222223333333344444444",
"0000000011111111222222223333333344444444",
"0000000011111111222222223333333344444444",
"0000000011111111222222223333333344444444",
"0000000011111111222222223333333344444444",
"0000000011111111222222223333333344444444",
"0000000011111111222222223333333344444444",
"0000000011111111222222223333333344444444",
"0000000011111111222222223333333344444444",
"0000000011111111222222223333333344444444",
"0000000011111111222222223333333344444444",
"0000000011111111222222223333333344444444",
"0000000011111111222222223333333344444444",
"0000000011111111222222223333333344444444",
"0000000011111111222222223333333344444444"};
