/* XPM */
static char * xpm_xpm[] = {
"40 40 5 1",
"0 c #2B1205",
"1 c #CDD7B6",
"2 c #EE342C",
"3 c #446372",
"4 c #322B37",
"0000000011111111222222223333333344444444",
"0000000011111111222222223333333344444444",
"0000000011111111222222223333333344444444",
"0000000011111111222222223333333344444444",
"0000000011111111222222223333333344444444",
"0000000011111111222222223333333344444444",
"0000000011111111222222223333333344444444",
"0000000011111111222222223333333344444444",
"0000000011111111222222223333333344444444",
"0000000011111111222222223333333344444444",
"0000000011111111222222223333333344444444",
"0000000011111111222222223333333344444444",
"0000000011111111222222223333333344444444",
"0000000011111111222222223333333344444444",
"0000000011111111222222223333333344444444",
"0000000011111111222222223333333344444444",
"0000000011111111222222223333333344444444",
"0000000011111111222222223333333344444444",
"0000000011111111222222223333333344444444",
"0000000011111111222222223333333344444444",
"0000000011111111222222223333333344444444",
"0000000011111111222222223333333344444444",
"0000000011111111222222223333333344444444",
"0000000011111111222222223333333344444444",
"0000000011111111222222223333333344444444",
"0000000011111111222222223333333344444444",
"0000000011111111222222223333333344444444",
"0000000011111111222222223333333344444444",
"0000000011111111222222223333333344444444",
"0000000011111111222222223333333344444444",
"0000000011111111222222223333333344444444",
"0000000011111111222222223333333344444444",
"0000000011111111222222223333333344444444",
"0000000011111111222222223333333344444444",
"0000000011111111222222223333333344444444",
"0000000011111111222222223333333344444444",
"0000000011111111222222223333333344444444",
"0000000011111111222222223333333344444444",
"0000000011111111222222223333333344444444",
"0000000011111111222222223333333344444444"};
