/* XPM */
static char * xpm_xpm[] = {
"40 40 5 1",
"0 c #2CAEB3",
"1 c #A84949",
"2 c #A88649",
"3 c #425981",
"4 c #814542",
"0000000011111111222222223333333344444444",
"0000000011111111222222223333333344444444",
"0000000011111111222222223333333344444444",
"0000000011111111222222223333333344444444",
"0000000011111111222222223333333344444444",
"0000000011111111222222223333333344444444",
"0000000011111111222222223333333344444444",
"0000000011111111222222223333333344444444",
"0000000011111111222222223333333344444444",
"0000000011111111222222223333333344444444",
"0000000011111111222222223333333344444444",
"0000000011111111222222223333333344444444",
"0000000011111111222222223333333344444444",
"0000000011111111222222223333333344444444",
"0000000011111111222222223333333344444444",
"0000000011111111222222223333333344444444",
"0000000011111111222222223333333344444444",
"0000000011111111222222223333333344444444",
"0000000011111111222222223333333344444444",
"0000000011111111222222223333333344444444",
"0000000011111111222222223333333344444444",
"0000000011111111222222223333333344444444",
"0000000011111111222222223333333344444444",
"0000000011111111222222223333333344444444",
"0000000011111111222222223333333344444444",
"0000000011111111222222223333333344444444",
"0000000011111111222222223333333344444444",
"0000000011111111222222223333333344444444",
"0000000011111111222222223333333344444444",
"0000000011111111222222223333333344444444",
"0000000011111111222222223333333344444444",
"0000000011111111222222223333333344444444",
"0000000011111111222222223333333344444444",
"0000000011111111222222223333333344444444",
"0000000011111111222222223333333344444444",
"0000000011111111222222223333333344444444",
"0000000011111111222222223333333344444444",
"0000000011111111222222223333333344444444",
"0000000011111111222222223333333344444444",
"0000000011111111222222223333333344444444"};
