https://public.etherpad-mozilla.org/p/VulgarisationDuEf9345_6502man
(needs to be verified)

+------------------------------------+-----------------------------------------------------------------------------------------------------------------------------------------+
| 6502MAN                            |                                                         VULGARISATION DU EF-9345                                                        |
+------------------------------------+-----------------------------------------------------------------------------------------------------------------------------------------+

+------------------------------------+-----------------------------------------------------------------------------------------------------------------------------------------+
| affichage d’un charactère          |                                                                                                                                         |
| en mode 40 colonnes bichromes:     |                                                                                                                                         |
+------------------------------------+-----------------------------------------------------------------------------------------------------------------------------------------+
|                                    |                                                                 BITS                                                                    |
+------------------------------------+--------------------+---------------+----------+----------+-------------------+-------------+-------------------+------------------------+
|                                    |          7         |        6      |    5     |     4    |         3         |      2      |         1         |           0            |
+------------------------------------+--------------------+---------------+----------+----------+-------------------+-------------+-------------------+------------------------+
| R1: pointeur adresse VRAM          |          0         |             nº de tampon (attention numérotation 0 puis 8 à 31        |  nº du caractère dans le tampon            |
+------------------------------------+--------------------+---------------+---------------------+-------------------+-------------+-------------------+------------------------+
| R2                                 | 1=redefini         | 0=mono        | 00=G’0              | 0=normal          | 0=normal    | 0=normal          | 1=incrustation normal  |  +---+--------+
|                                    | 0=standard         | 1=multicolor  | 01=G’0 soulingée    | 1=double largeur  | 1=masquage  | 1=double hauteur  | 0=transparence         |  |BVR|        |
|                                    |                    |               | 11=G’11             |                   |             |                   |                        |  +---+--------+
|                                    |                    |               | 10=G’10             |                   |             |                   |                        |  |000|noir    |
+------------------------------------+--------------------+---------------+---------------------+-------------------+-------------+-------------------+------------------------+  |001|rouge   |
| R3: attribut du caractère          | 0=normal           | code couleur de forme (BVR)         | 0=normal          | code couleur de fond (BVR)                               |  |010|vert    |
|                                    | 1=inversion vidéo  |                                     | 1=clignotement    |                                                          |  |011|jaune   |
+------------------------------------+--------------------+-------------------------------------+-------------------+----------------------------------------------------------+  |101|bleu    |
| R6: position du caractère ligne    |                                                   ligne 0=0 / ligne 1 à 24=ligne+7                                                      |  |101|magenta |
+------------------------------------+-----------------------------------------------------------------------------------------------------------------------------------------+  |110|cyan    |
| R7: position du caractère colonne  |                                                                  0 à 39                                                                 |  |111|blanc   |
+------------------------------------+-----------------------------------------------------------------------------------------------------------------------------------------+  +---+--------+


+------------------------------------+-----------------------------------------------------------------------------------------------------------------------------------------+
| redéfinition* d’un caractère       | *caractère redefini en mode                                                                                                             |
| en mode 40 colonnes bichromes:     | inversion horizontal                                                                                                                    |
+------------------------------------+-----------------------------------------------------------------------------------------------------------------------------------------+
|                                    |                                                                 BITS                                                                    |
+------------------------------------+--------------------+---------------+-----------+-------------+---------------+-------------+-------------------+------------------------+
|                                    |          7         |        6      |     5     |      4      |       3       |      2      |         1         |            0           |
+------------------------------------+--------------------+---------------+-----------+-------------+---------------+-------------+-------------------+------------------------+
| R1: dessins du caractère           |                                                                                                                                         |
+------------------------------------+--------------------+---------------+-----------+----------------------------------------------------------------------------------------+  +------------------------+
| R4: pointeur adresse VRAM          |          0         |        0      |     a     |  nº de tampon (attention numérotation 0 puis 8 à 31                                    |  | abcd= numéro de bloc,  |
+------------------------------------+--------------------+---------------+-----------+-------------------------------------------+--------------------------------------------+  | d dans R6 inutilisable |
| R5: pointeur adresse VRAM          |          b         |        c      | nº de tranche 0 à 9                                   | nº du caractère dans le tampon             |  | avec l’alice           |
+------------------------------------+--------------------+---------------+-------------------------------------------------------+--------------------------------------------+  +------------------------+


+------------------------------------+-----------------------------------------------------------------------------------------------------------------------------------------+
| Registres                          |                                                                BITS                                                                     |
+------------------------------------+----------------+---------------+------------+-------------------+----------------+----------------+------------------+------------------+
|                                    |        7       |       6       |      5     |         4         |        3       |        2       |         1        |         0        |
+-------+----------------------------+----------------+---------------+------------+-------------------+----------------+----------------+------------------+------------------+
| ROR:  |                            | premier bloc affiché (toujours pair)        | YOR                                                                                       |
|       |                            +---------------------------------------------+-------------------------------------------------------------------------------------------+
|       |                            |                                               YOR=ligne d’origine entre 8 et 31 (8=normal)                                              |
+-------+----------------------------+----------------+----------------------------+-------------------------------------------------------------------------------------------+
| DOR:  | en mode 40 colonnes        | numéro du bloc | numéro du bloc             | numéro du bloc des caractères alphanumériques redefinis par l’user                        |
|       |                            | des caractères | des caractères             |                                                                                           |
|       |                            | quadrichromes  | semigraphiques             |                                                                                           |
|       |                            +----------------+----------------------------+-------------------+-----------------------------------------------------------------------+
|       |                            | Q0             | G’10 et G’11                                   | G’0                                                                   |
|       +----------------------------+----------------+------------------------------------------------+----------------+------------------------------------------------------+
|       | en mode 80 colonnes        | 1=incrustation | code couleur de la couleur                     | 1=incrustation | code couleur de la couleur active 1 (BVR)            |
|       |                            | de la couleur  | active 2 (BVR)                                 | de la couleur  |                                                      |
|       |                            | active 2       |                                                | active 1       |                                                      |
|       |                            | 0=transparence |                                                | 0=transparence |                                                      |
+-------+----------------------------+----------------+---------------+------------+-------------------+----------------+----------------+------------------+------------------+
| TGS:  |                            | k1             | k0            | rangée     | 0: synchro H+V    | verticale      | horizontale    | 0=non entrelacée | 0=625 lignes     |
|       |                            |                |               | de service | 1: synchro compo+ | resync         | resync         | 1=entrelacée     | 1=525 lignes     |
|       |                            |                |               |            | compar            |                |                |                  |                  |
+-------+----------------------------+----------------+---------------+------------+-------------------+----------------+----------------+------------------+------------------+
| PAT:  |                            | k2             | 0=fixe        | 00=incrustation vidéo          | 0: pas de      | 0=marge du bas | 0=marge du haut  | 0=pas de rangée  |
|       |                            |                | 1=dignotenent | 01=écart                       | masquage       | affiché        | affiché          | de service       |  +--+--+--+----------------------+
|       |                            |                |               | 10=forcage                     | 1: masquage    | 1=marge du bas | 1=marge du haut  | 1=affiche rangée |  |K2|K1|K0|                      |
|       |                            |                |               | 11=inhibe                      |                | non affiché    | non affiché      | de service       |  +--+--+--+----------------------+
+-------+----------------------------+----------------+---------------+--------------------------------+----------------+----------------+------------------+------------------+  | 0| 0| 0| 40 col mode long     |
| MAT:  |                            | 0=normal       | 0=curseur     | 00=curseur fixe                | 0= marge       | code couleur de la marge (BVR)                       |  | 0| 0| 1| 40 col mode variable |
|       |                            | 1=double       | inactif       | 10=curseur dignotant           | invisible      |                                                      |  | 1| 0| 0| 40 col mode court    |
|       |                            | hauteur des    | 1=curseur     | 01=curseur fixe soulignée      | 1=marge        |                                                      |  | 0| 1| 1| 80 col mode long     |
|       |                            | caractères     | actif         | 11=curseur dignotant soulignée | visible        |                                                      |  | 0| 1| 0| 80 col mode court    |
+-------+----------------------------+----------------+---------------+--------------------------------+----------------+------------------------------------------------------+  +--+--+--+----------------------+

